Place,Name,CyrillicName,BirthYear,WeightClassKg,BodyweightKg,Best3SquatKg,Best3BenchKg,Best3DeadliftKg,TotalKg,Sex,Division,Event,Equipment
1,Ismail Safarov,Исмаил Сафаров,1957,56,55.5,135,90,170,395,M,Open,SBD,Single-ply
DQ,Oleg Dvoynikov,Олег Двойников,1960,60,59.3,,,,,M,Open,SBD,Single-ply
1,Sergey Mazaev,Сергей Мазаев,1982,67.5,65,175,125,210,510,M,Open,SBD,Single-ply
1,Sergey Shelyakin,Сергей Шелякин,1971,75,74.35,250,200,240,690,M,Open,SBD,Single-ply
2,Nikolay Durapov,Николай Дурапов,1980,75,74.95,240,135,275,650,M,Open,SBD,Single-ply
3,Rodion Puchkovskiy,Родион Пучковский,1980,75,73.55,212.5,145,230,587.5,M,Open,SBD,Single-ply
4,Evgeniy Mamonov,Евгений Мамонов,1989,75,74.45,210,155,210,575,M,Open,SBD,Single-ply
5,Maksim Stepanov #5,Максим Степанов,1987,75,74.5,215,122.5,210,547,M,Open,SBD,Single-ply
6,Mikhail Vitovskiy,Михаил Витовский,1986,75,72.1,185,120,230,535,M,Open,SBD,Single-ply
DQ,Aleksandr Kuznetsov #20,Александр Кузнецов,1988,75,72.45,,,,,M,Open,SBD,Single-ply
1,Andrey Laykhinen,Андрей Лайхинен,1983,82.5,82.1,285,225,290,800,M,Open,SBD,Single-ply
2,Evgeniy Shurygin,Евгений Шурыгин,1983,82.5,82.5,282.5,195,275,752.5,M,Open,SBD,Single-ply
3,Ilya Lutsenko,Илья Луценко,1981,82.5,82,290,170,287.5,747.5,M,Open,SBD,Single-ply
4,Aleksandr Osiev,Александр Осиев,1976,82.5,81.8,280,165,275,720,M,Open,SBD,Single-ply
5,Aleksandr Lyubegin,Александр Любегин,1984,82.5,81.75,275,140,270,685,M,Open,SBD,Single-ply
6,Gennadiy Chingin,Геннадий Чингин,1962,82.5,82.2,270,160,250,680,M,Open,SBD,Single-ply
7,Ilya Shubin,Илья Шубин,1985,82.5,81.7,265,152.5,250,667.5,M,Open,SBD,Single-ply
DQ,Pavel Kuritsyn,Павел Курицын,1981,82.5,80.95,,,,,M,Open,SBD,Single-ply
DQ,Nikolay Belyaev,Николай Беляев,1958,82.5,79.7,,,,,M,Open,SBD,Single-ply
1,Oleg Misyaev,Олег Мисяев,1980,90,89.15,315,200,305,820,M,Open,SBD,Single-ply
2,Aleksandr Romanov,Александр Романов,1983,90,89.85,290,177.5,282.5,750,M,Open,SBD,Single-ply
3,Evgeniy Andreev,Евгений Андреев,1979,90,88.85,287.5,185,270,742.5,M,Open,SBD,Single-ply
4,Konstantin Malyutin,Константин Малютин,1970,90,89.2,265,190,280,735,M,Open,SBD,Single-ply
5,Rafael Davlitshin,Рафаэль Давлитшин,1970,90,89.5,270,180,280,730,M,Open,SBD,Single-ply
6,Andrey Rodichev,Андрей Родичев,1982,90,89.85,240,200,280,720,M,Open,SBD,Single-ply
7,Aleksandr Gorokhovskiy,Александр Гороховский,1989,90,87.5,275,160,280,715,M,Open,SBD,Single-ply
8,Igor Gerasimov,Игорь Герасимов,1971,90,90,250,150,270,670,M,Open,SBD,Single-ply
9,Andrey Koloskov,Андрей Колосков,1981,90,86,250,150,260,660,M,Open,SBD,Single-ply
10,Aleksandr Pekurov,Александр Пекуров,1981,90,86.5,225,165,252.5,642.5,M,Open,SBD,Single-ply
11,Ivan Baranov #4,Иван Баранов,1984,90,85.35,240,145,240,625,M,Open,SBD,Single-ply
12,Konstantin Simonov,Константин Симонов,1984,90,89.5,235,135,240,610,M,Open,SBD,Single-ply
13,Andrey Yankauskas,Андрей Янкаускас,1965,90,88.35,230,160,220,610,M,Open,SBD,Single-ply
14,Pavel Tushin,Павел Тушин,1988,90,83.3,230,150,220,600,M,Open,SBD,Single-ply
DQ,Vladimir Maruzhenko,Владимир Маруженко,1960,90,86.5,,,,,M,Open,SBD,Single-ply
1,Vyacheslav Kozlov,Вячеслав Козлов,1968,100,95.05,315,205,315,835,M,Open,SBD,Single-ply
2,Aleksey Makarov,Алексей Макаров,1973,100,99.7,315,200,270,785,M,Open,SBD,Single-ply
3,Aleksey Yutkin,Алексей Юткин,1974,100,99.1,320,185,265,770,M,Open,SBD,Single-ply
4,Dmitriy Amosov,Дмитрий Амосов,1988,100,98.85,290,180,285,755,M,Open,SBD,Single-ply
5,Yuriy Ershov,Юрий Ершов,1972,100,95.4,280,190,280,750,M,Open,SBD,Single-ply
6,Mikhail Dosiy,Михаил Досий,1983,100,94,250,170,270,690,M,Open,SBD,Single-ply
7,Valeriy Klistov,Валерий Клистов,1977,100,98,250,160,270,680,M,Open,SBD,Single-ply
8,Andrey Baranov,Андрей Баранов,1972,100,96.9,250,160,240,650,M,Open,SBD,Single-ply
1,Aleksey Kashirin,Алексей Каширин,1973,110,105.5,360,240,332.5,932.5,M,Open,SBD,Single-ply
2,Valeriy Abramov,Валерий Абрамов,1979,110,110,350,200,350,900,M,Open,SBD,Single-ply
3,Andrey Kuzmin,Андрей Кузьмин,1968,110,103.25,295,190,295,780,M,Open,SBD,Single-ply
4,Evgeniy Dmitrachenko,Евгений Дмитраченко,1989,110,108.95,280,210,260,750,M,Open,SBD,Single-ply
5,Mikhail Danilov,Михаил Данилов,1970,110,103,280,190,260,730,M,Open,SBD,Single-ply
6,Sergey Rumyantsev,Сергей Румянцев,1957,110,101,257.5,190,255,702.5,M,Open,SBD,Single-ply
1,Mikhail Viasovskiy,Михаил Виасовский,1984,125,124.4,360,222.5,332.5,915,M,Open,SBD,Single-ply
2,Vladimir Zuykov,Владимир Зуйков,1976,125,117.4,250,170,290,710,M,Open,SBD,Single-ply
3,Dmitriy Sviridov,Дмитрий Свиридов,1978,125,118.95,265,190,230,685,M,Open,SBD,Single-ply
DQ,Vladimir Olchenko,Владимир Ольченко,1973,125,120.45,335,,,,M,Open,SBD,Single-ply
1,Artem Kovalchuk,Артём Ковальчук,1982,125+,132.15,400,237.5,345,982.5,M,Open,SBD,Single-ply
