Division,WeightClassKg,Place,Name,Team,BodyweightKg,Best3SquatKg,Best3BenchKg,Best3DeadliftKg,TotalKg,Equipment,Event,Sex
Girls,47.85,1,Addison Barnes,Bullard,46.63,90.72,36.29,90.72,217.72,Single-ply,SBD,F
Girls,47.85,2,Gracie Youngblood,Gladewater Sabine,46.54,63.5,27.22,83.91,174.63,Single-ply,SBD,F
Girls,47.85,3,Alaina Lindsey,Winona,46.63,65.77,27.22,74.84,167.83,Single-ply,SBD,F
Girls,47.85,4,Racheal Puckett,Lindale,47.36,70.31,27.22,68.04,165.56,Single-ply,SBD,F
Girls,51.94,1,Tya Dudley,Tyler Lee,51.89,97.52,45.36,117.93,260.82,Single-ply,SBD,F
Girls,51.94,2,Bailee Casteel,Troup,50.53,102.06,49.9,102.06,254.01,Single-ply,SBD,F
Girls,51.94,3,Bella Guajardo,Corsicana,50.35,86.18,31.75,95.25,213.19,Single-ply,SBD,F
Girls,51.94,4,Liz Renteria,Tyler Lee,50.08,79.38,34.02,81.65,195.04,Single-ply,SBD,F
Girls,51.94,5,Kaitlyn Hays,Troup,51.17,74.84,34.02,79.38,188.24,Single-ply,SBD,F
Girls,56.02,1,Jessica Lyman,New London West Rusk,55.16,108.86,34.02,106.59,249.48,Single-ply,SBD,F
Girls,56.02,2,Brice Martin,Troup,53.16,83.91,56.7,83.91,224.53,Single-ply,SBD,F
Girls,56.02,3,Sydney Burnham,Winona,53.25,68.04,31.75,90.72,190.51,Single-ply,SBD,F
Girls,56.02,4,Tona Baker,Gladewater Sabine,53.71,65.77,31.75,72.57,170.1,Single-ply,SBD,F
Girls,56.02,DQ,Martina Johnson,Corsicana,54.25,47.63,,,,Single-ply,SBD,F
Girls,60.1,1,Katie York,Troup,57.97,136.08,65.77,120.2,322.05,Single-ply,SBD,F
Girls,60.1,2,Venisha Harmon,Tyler Lee,59.87,122.47,49.9,129.27,301.64,Single-ply,SBD,F
Girls,60.1,3,Savannah Johnson,Winona,59.33,104.33,49.9,120.2,274.42,Single-ply,SBD,F
Girls,60.1,4,Kessy Bennett,Lindale,59.6,86.18,43.09,92.99,222.26,Single-ply,SBD,F
Girls,60.1,5,Bella Yoder,Lindale,58.15,79.38,43.09,90.72,213.19,Single-ply,SBD,F
Girls,60.1,6,Joanna Sandaval,Mount Pleasant,58.33,70.31,31.75,65.77,167.83,Single-ply,SBD,F
Girls,60.1,7,Tacoya Miller,Lindale,56.7,47.63,24.95,70.31,142.88,Single-ply,SBD,F
Girls,67.36,1,Mallorie Sander,Palestine,67.04,188.24,95.25,142.88,426.38,Single-ply,SBD,F
Girls,67.36,2,Britney Berlonge,Winona,65.23,127.01,54.43,127.01,308.44,Single-ply,SBD,F
Girls,67.36,3,Mikayla Massara,Waxahachie,64.05,111.13,56.7,133.81,301.64,Single-ply,SBD,F
Girls,67.36,4,Rhema Pitts,Troup,62.69,102.06,52.16,108.86,263.08,Single-ply,SBD,F
Girls,67.36,5,Natalie McBride,Waxahachie,63.96,102.06,47.63,102.06,251.74,Single-ply,SBD,F
Girls,67.36,6,Sydni Segroves,Lindale,61.42,97.52,47.63,104.33,249.48,Single-ply,SBD,F
Girls,67.36,7,Katherine Patterson,Gladewater Sabine,65.41,99.79,40.82,108.86,249.48,Single-ply,SBD,F
Girls,67.36,8,Destiny Campbell,Corsicana,66.86,99.79,40.82,108.86,249.48,Single-ply,SBD,F
Girls,67.36,9,Makayla Ragland,Lindale,63.23,92.99,47.63,95.25,235.87,Single-ply,SBD,F
Girls,67.36,10,Yasmin Gomez,Mount Pleasant,60.6,88.45,43.09,92.99,224.53,Single-ply,SBD,F
Girls,67.36,11,Jessica Decco,New London West Rusk,61.42,74.84,43.09,106.59,224.53,Single-ply,SBD,F
Girls,67.36,12,Alyssa Huff,Bullard,61.6,99.79,40.82,83.91,224.53,Single-ply,SBD,F
Girls,67.36,13,Ashlynn Smith,Gladewater Sabine,65.32,88.45,43.09,90.72,222.26,Single-ply,SBD,F
Girls,67.36,14,Emma Smitherman,Gladewater Sabine,64.41,102.06,43.09,74.84,219.99,Single-ply,SBD,F
Girls,67.36,15,Gracie Ellis,New London West Rusk,64.41,65.77,34.02,92.99,192.78,Single-ply,SBD,F
Girls,67.36,16,Mary Arigbabu,Palestine,63.32,61.23,43.09,83.91,188.24,Single-ply,SBD,F
Girls,67.36,17,Naomi Estrada,Lindale,66.95,72.57,29.48,81.65,183.7,Single-ply,SBD,F
Girls,67.36,18,Valeria Altamira,Corsicana,65.32,68.04,31.75,77.11,176.9,Single-ply,SBD,F
Girls,67.36,19,Delan Waggoner,Gladewater Sabine,61.69,54.43,36.29,74.84,165.56,Single-ply,SBD,F
Girls,75.07,1,Jaden Fair,Greenville,73.66,142.88,74.84,138.35,356.07,Single-ply,SBD,F
Girls,75.07,2,Cheyenne Henson,Troup,74.21,133.81,61.23,136.08,331.12,Single-ply,SBD,F
Girls,75.07,3,Alexis Hathaway,Bullard,74.03,138.35,58.97,122.47,319.78,Single-ply,SBD,F
Girls,75.07,4,Audree Shelton,Bullard,67.4,131.54,54.43,127.01,312.98,Single-ply,SBD,F
Girls,75.07,5,Sage Simmons,Waxahachie,73.75,115.67,56.7,124.74,297.1,Single-ply,SBD,F
Girls,75.07,6,Krissa Woods,Mount Pleasant,68.95,115.67,47.63,115.67,278.96,Single-ply,SBD,F
Girls,75.07,7,Kathryne Cantu,Mount Pleasant,72.67,111.13,49.9,117.93,278.96,Single-ply,SBD,F
Girls,75.07,8,Charity Campbell,Bullard,72.48,117.93,47.63,108.86,274.42,Single-ply,SBD,F
Girls,75.07,9,Callie Cargill,Frankston,67.49,99.79,38.56,113.4,251.74,Single-ply,SBD,F
Girls,75.07,10,Ferriah Bates,Lindale,68.49,79.38,38.56,90.72,208.65,Single-ply,SBD,F
Girls,75.07,11,Ariel Webb,Gladewater Sabine,71.49,65.77,36.29,90.72,192.78,Single-ply,SBD,F
Girls,75.07,12,Saddie Randolph,New London West Rusk,70.22,65.77,38.56,77.11,181.44,Single-ply,SBD,F
Girls,75.07,13,Zabrina Scroggins,Palestine,69.67,52.16,36.29,74.84,163.29,Single-ply,SBD,F
Girls,82.33,1,Andrea Tilley,Troup,81.65,142.88,65.77,154.22,362.87,Single-ply,SBD,F
Girls,82.33,2,Alexandra De La Cruz,Waxahachie,80.74,131.54,63.5,127.01,322.05,Single-ply,SBD,F
Girls,82.33,3,Alyssa Canales,Corsicana,78.11,127.01,56.7,111.13,294.84,Single-ply,SBD,F
Girls,82.33,4,Maryssa Gilliam,Troup,79.56,124.74,45.36,124.74,294.84,Single-ply,SBD,F
Girls,82.33,5,Catelin Jones,Frankston,78.47,97.52,45.36,113.4,256.28,Single-ply,SBD,F
Girls,82.33,6,Brayden Gill,Lindale,75.48,99.79,47.63,102.06,249.48,Single-ply,SBD,F
Girls,82.33,7,Novali Davenport,Frankston,75.84,104.33,45.36,99.79,249.48,Single-ply,SBD,F
Girls,82.33,8,Sydnee Martin,New London West Rusk,76.93,88.45,47.63,99.79,235.87,Single-ply,SBD,F
Girls,82.33,9,Isabel Hernández,Frankston,80.29,86.18,38.56,92.99,217.72,Single-ply,SBD,F
Girls,82.33,10,Nancy Rivera,Corsicana,76.29,74.84,43.09,79.38,197.31,Single-ply,SBD,F
Girls,90.04,1,Paige Miles,Frankston,85.28,142.88,61.23,142.88,347,Single-ply,SBD,F
Girls,90.04,2,Hailey Jacobs,Winona,85.28,136.08,54.43,154.22,344.73,Single-ply,SBD,F
Girls,90.04,3,Jalyce Dennis,Troup,88.09,136.08,65.77,142.88,344.73,Single-ply,SBD,F
Girls,90.04,4,Alli Lewis,Gladewater Sabine,84.37,102.06,52.16,99.79,254.01,Single-ply,SBD,F
Girls,90.04,5,Emily Williams #3,Frankston,86.36,70.31,34.02,90.72,195.04,Single-ply,SBD,F
Girls,100.02,1,Amina Petty,Lindale,95.35,151.95,86.18,170.1,408.23,Single-ply,SBD,F
Girls,100.02,2,Anabelle Price,Bullard,90.72,149.69,65.77,136.08,351.53,Single-ply,SBD,F
Girls,100.02,3,Heather Coe,Bullard,98.52,151.95,61.23,117.93,331.12,Single-ply,SBD,F
Girls,100.02,4,Vanessa Guido,Corsicana,93.8,131.54,54.43,133.81,319.78,Single-ply,SBD,F
Girls,100.02,5,Fre'Kelle Rouse,Waxahachie,92.08,115.67,61.23,133.81,310.71,Single-ply,SBD,F
Girls,100.02,6,Heavenlee Griffith,Mount Pleasant,95.25,106.59,49.9,127.01,283.5,Single-ply,SBD,F
Girls,100.02,7,Hannah Merritt,Gladewater Sabine,97.52,111.13,54.43,117.93,283.5,Single-ply,SBD,F
Girls,100.02,8,Devan Andrews,Waxahachie,96.16,111.13,56.7,113.4,281.23,Single-ply,SBD,F
Girls,100.02,9,Atenea Santaurio,Corsicana,92.62,113.4,49.9,113.4,276.69,Single-ply,SBD,F
Girls,100.02,10,Erika Lowry,Gladewater Sabine,90.81,104.33,58.97,111.13,274.42,Single-ply,SBD,F
Girls,100.02,11,Destiny Toye,Frankston,98.97,108.86,49.9,97.52,256.28,Single-ply,SBD,F
Girls,100.02,12,Kay'Triana Miller,Corsicana,90.9,102.06,43.09,97.52,242.67,Single-ply,SBD,F
Girls,100.02,13,Morgan Gann,New London West Rusk,91.26,70.31,45.36,92.99,208.65,Single-ply,SBD,F
Girls,117.71,1,Grace Reynolds,Lindale,107.41,124.74,61.23,117.93,303.91,Single-ply,SBD,F
Girls,117.71,2,Mariah Carter,Waxahachie,101.97,99.79,54.43,102.06,256.28,Single-ply,SBD,F
Girls,117.71,3,Molli Dorsey,Mount Pleasant,107.32,102.06,65.77,83.91,251.74,Single-ply,SBD,F
Girls,117.71,4,Kyra Miller,Corsicana,111.86,56.7,40.82,92.99,190.51,Single-ply,SBD,F
Girls,117.71+,1,Leighann Langston,Bullard,136.71,149.69,58.97,106.59,315.25,Single-ply,SBD,F
