Name,CyrillicName,Sex,Event,Equipment,Tested,BirthDate,Division,BodyweightKg,WeightClassKg,Team,Squat1Kg,Squat2Kg,Squat3Kg,Best3SquatKg,Bench1Kg,Bench2Kg,Bench3Kg,Bench4Kg,Best3BenchKg,Deadlift1Kg,Deadlift2Kg,Deadlift3Kg,Best3DeadliftKg,TotalKg,Place
Elena Terekhova,Елена Терехова,F,SBD,Wraps,Yes,2002-11-21,Amateur Teen 14-15,43.95,44,Рельеф,72.5,-77.5,77.5,77.5,35,37.5,-40,,37.5,-82.5,82.5,-87.5,82.5,197.5,1
Yuliya Kuklina,Юлия Куклина,F,SBD,Wraps,Yes,2001-05-22,Amateur Teen 14-15,64.85,67.5,Рельеф,90,-102.5,102.5,102.5,60,65,-67.5,,65,105,115,120,120,287.5,1
Yuliya Klychnikova,Юлия Клычникова,F,SBD,Wraps,Yes,2000-09-19,Amateur Teen 16-17,56,56,Рельеф,-90,90,-95,90,-42.5,45,-47.5,,45,95,102.5,107.5,107.5,242.5,1
Alina Krivosheina,Алина Кривошеина,F,SBD,Wraps,Yes,1998-12-27,Amateur Teen 18-19,44,44,Рельеф,60,65,-70,65,35,37.5,40,,40,90,-100,100,100,205,1
Yuliya Tolmacheva,Юлия Толмачева,F,SBD,Wraps,Yes,1997-06-22,Amateur Teen 18-19,43.35,44,Рельеф,82.5,-87.5,-87.5,82.5,40,42.5,45,,45,67.5,70,-72.5,70,197.5,2
Elena Chernysheva,Елена Чернышева,F,SBD,Wraps,Yes,1998-01-30,Amateur Teen 18-19,48,48,Рельеф,105,-112.5,-112.5,105,55,62.5,65,,65,105,112.5,-115,112.5,282.5,1
Kseniya Yudina,Ксения Юдина,F,SBD,Wraps,Yes,1998-11-24,Amateur Teen 18-19,48,48,Рельеф,50,60,67.5,67.5,37.5,40,-42.5,,40,70,80,-87.5,80,187.5,2
Alina Yakovleva,Аліна Яковлева,F,SBD,Wraps,Yes,1996-10-14,Amateur Juniors 20-23,52,52,Рельеф,75,-80,80,80,50,55,-60,,55,110,120,-130,120,255,1
Alena Alekseeva,Алена Алексеева,F,SBD,Wraps,Yes,1994-05-25,Amateur Juniors 20-23,59.5,60,Pitbull Gym,90,-100,105,105,50,60,-62.5,,60,95,112.5,-115,112.5,277.5,1
Mariya Sushkeeva,Мария Сушкеева,F,SBD,Wraps,Yes,1995-10-08,Amateur Juniors 20-23,65.45,67.5,Рельеф,80,85,90,90,47.5,52.5,-57.5,,52.5,110,122.5,-137.5,122.5,265,1
Alena Bizikina,Алена Бизикина,F,SBD,Wraps,Yes,1995-07-04,Amateur Juniors 20-23,52.9,56,Рельеф,80,85,-90,85,30,35,-40,,35,107.5,115,-120,115,235,1
Anastasiya Leventsova,Анастасия Левенцова,F,S,Wraps,Yes,2002-09-07,Amateur Teen 14-15,55.6,56,Рельеф,-85,85,-97.5,85,,,,,,,,,,85,1
Regina Suntsova,Регина Сунцова,F,S,Wraps,Yes,1995-06-12,Amateur Juniors 20-23,52,52,Рельеф,105,-110,-110,105,,,,,,,,,,105,1
Anastasiya Varnakova,Анастасия Варнакова,F,S,Wraps,Yes,1997-02-08,Amateur Juniors 20-23,51.75,52,Рельеф,85,-92.5,92.5,92.5,,,,,,,,,,92.5,2
Alina Yakovleva,Аліна Яковлева,F,S,Wraps,Yes,1996-10-14,Amateur Juniors 20-23,52,52,Рельеф,75,-80,80,80,,,,,,,,,,80,3
Marina Efanova,Марина Ефанова,F,S,Wraps,Yes,1994-06-28,Amateur Juniors 20-23,66.75,67.5,Рельеф,95,-117.5,-117.5,95,,,,,,,,,,95,1
Mariya Sushkeeva,Мария Сушкеева,F,S,Wraps,Yes,1995-10-08,Amateur Juniors 20-23,65.45,67.5,Рельеф,80,85,90,90,,,,,,,,,,90,2
Sofya Nechaeva,Софья Нечаева,F,B,Raw,Yes,2001-08-14,Amateur Teen 14-15,48,48,Рельеф,,,,,52,-55,-55,,52,,,,,52,1
Viktoriya Pribytkova,Виктория Прибыткова,F,B,Raw,Yes,2001-08-10,Amateur Teen 14-15,55,56,Рельеф,,,,,50,-57.5,-57.5,,50,,,,,50,1
Sabina Ermilova,Сабина Ермилова,F,B,Raw,Yes,2002-09-03,Amateur Teen 14-15,55.8,56,Рельеф,,,,,42.5,45,-47.5,,45,,,,,45,2
Kseniya Polyakova,Ксения Полякова,F,B,Raw,Yes,2000-02-29,Amateur Teen 16-17,52,52,Рельеф,,,,,55,-60,-60,,55,,,,,55,1
Ekaterina Avdeenko,Екатерина Авдеенко,F,B,Raw,Yes,2000-04-12,Amateur Teen 16-17,63.65,67.5,Рельеф,,,,,45,52.5,-55,,52.5,,,,,52.5,1
Alina Yakovleva,Аліна Яковлева,F,B,Raw,Yes,1996-10-14,Amateur Juniors 20-23,52,52,Рельеф,,,,,50,55,-60,,55,,,,,55,1
Viktoriya Lambina,Виктория Ламбина,F,B,Raw,Yes,1997-01-31,Amateur Juniors 20-23,50.85,52,г. Рубцовск,,,,,47.5,52.5,-55,,52.5,,,,,52.5,2
Yuliya Korshunova,Юлия Коршунова,F,B,Raw,Yes,1995-06-04,Amateur Juniors 20-23,51.55,52,Рельеф,,,,,-45,45,-50,,45,,,,,45,3
Alena Frolova,Алена Фролова,F,B,Raw,Yes,1993-08-04,Amateur Juniors 20-23,59.8,60,Рельеф,,,,,72.5,77.5,-80,,77.5,,,,,77.5,1
Alena Alekseeva,Алена Алексеева,F,B,Raw,Yes,1994-05-25,Amateur Juniors 20-23,59.5,60,Pitbull Gym,,,,,50,60,-62.5,,60,,,,,60,2
Natalya Kiprusheva,Наталья Кипрушева,F,D,Raw,Yes,1994-02-16,Amateur Juniors 20-23,46.65,48,Рельеф,,,,,,,,,,80,90,95,95,95,1
Alina Yakovleva,Аліна Яковлева,F,D,Raw,Yes,1996-10-14,Amateur Juniors 20-23,52,52,Рельеф,,,,,,,,,,110,120,-130,120,120,1
Regina Suntsova,Регина Сунцова,F,D,Raw,Yes,1995-06-12,Amateur Juniors 20-23,52,52,Рельеф,,,,,,,,,,105,-115,-115,105,105,2
Mariya Sushkeeva,Мария Сушкеева,F,D,Raw,Yes,1995-10-08,Amateur Juniors 20-23,65.45,67.5,Рельеф,,,,,,,,,,110,122.5,-137.5,122.5,122.5,1
Oksana Andreeva,Оксана Андреева,F,D,Raw,Yes,1994-01-01,Amateur Juniors 20-23,64.85,67.5,Рельеф,,,,,,,,,,105,115,120,120,120,2
Anna Ustyuzhanina,Анна Устюжанина,F,D,Raw,Yes,1995-08-02,Amateur Juniors 20-23,63.95,67.5,Рельеф,,,,,,,,,,95,-107.5,107.5,107.5,107.5,3
Elena Lykasova,Елена Лыкасова,F,SBD,Wraps,Yes,1991-09-12,Amateur Open,48,48,Ярость Тигра,75,-80,80,80,50,-55,-55,,50,-80,-80,-80,,130,1
Ekaterina Vekman,Екатерина Векман,F,SBD,Wraps,Yes,1993-09-06,Amateur Open,49.3,52,Рельеф,85,92.5,-100,92.5,-45,47.5,52.5,,52.5,90,95,-100,95,240,1
Tatyana Bushta,Татьяна Бушта,F,SBD,Wraps,Yes,1982-01-06,Amateur Open,50.4,52,Стальной Медведь Новосибирск,60,67.5,72.5,72.5,42.5,45,47.5,,47.5,80,90,92.5,92.5,212.5,2
Evgeniya Sanarova,Евгения Санарова,F,SBD,Wraps,Yes,1978-11-17,Amateur Open,51.55,52,Рельеф,80,-85,85,85,35,40,-42.5,,40,80,-85,85,85,210,3
Yuliya Kolbina,Юлия Колбина,F,SBD,Wraps,Yes,1978-10-06,Amateur Open,51.4,52,Рельеф,55,-62.5,-62.5,55,-45,-45,-45,,,,,,,,DQ
Marina Reze,Марина Резе,F,SBD,Wraps,Yes,1992-12-30,Amateur Open,56,56,Рельеф,97.5,107.5,-115,107.5,57.5,65,-72.5,,65,120,130,135,135,307.5,1
Elena Kosikhina,Елена Косихина,F,SBD,Wraps,Yes,1987-12-01,Amateur Open,56,56,Рельеф,100,110,-115,110,47.5,52.5,-55,,52.5,125,132.5,137.5,137.5,300,2
Tatyana Zhigalina,Татьяна Жигалина,F,SBD,Wraps,Yes,1993-01-08,Amateur Open,56,56,Рельеф,90,97.5,-102.5,97.5,50,-55,-55,,50,95,102.5,-107.5,102.5,250,3
Tatyana Demidova,Татьяна Демидова,F,SBD,Wraps,Yes,1982-03-25,Amateur Open,54.45,56,Рельеф,70,75,-82.5,75,42.5,45,47.5,,47.5,77.5,85,-100,85,207.5,4
Anna Vishnyak,Анна Вишняк,F,SBD,Wraps,Yes,1984-12-12,Amateur Open,54.4,56,Стальной Медведь Новосибирск,110,120,-125,120,80,-85,85,,85,-150,-150,-150,,,DQ
Larisa Chernobaeva,Лариса Чернобаева,F,SBD,Wraps,Yes,1980-12-22,Amateur Open,56.1,60,Стальной Медведь Новосибирск,95,100,105,105,47.5,52.5,55,,55,127.5,137.5,-147.5,137.5,297.5,1
Alena Rozhkovskaya,Алена Рожковская,F,SBD,Wraps,Yes,1986-01-14,Amateur Open,58,60,Рельеф,90,102.5,-107.5,102.5,55,57.5,-60,,57.5,110,117.5,122.5,122.5,282.5,2
Darya Yalama,Дарья Ялама,F,SBD,Wraps,Yes,1987-03-25,Amateur Open,59.3,60,Стальной Медведь Новосибирск,95,102.5,-107.5,102.5,45,50,55,,55,-110,110,-127.5,110,267.5,3
Marina Peretyatko,Марина Перетятько,F,SBD,Wraps,Yes,1987-04-20,Amateur Open,58.65,60,Яровое,90,-95,-95,90,-50,50,-55,,50,90,95,-100,95,235,4
Anna Yan,Анна Ян,F,SBD,Wraps,Yes,1990-12-28,Amateur Open,59.65,60,Рельеф,85,92.5,97.5,97.5,-50,-55,-55,,,-110,,,,97.5,5
Tatyana Slepokurova,Татьяна Слепокурова,F,SBD,Wraps,Yes,1969-01-07,Amateur Open,65.6,67.5,Стальной Медведь Новосибирск,85,90,95,95,50,55,60,,60,120,130,140,140,295,1
Elvira Makova,Эльвира Макова,F,SBD,Wraps,Yes,1977-11-16,Amateur Open,66.8,67.5,Рельеф,80,90,-97.5,90,-47.5,52.5,55,,55,110,120,125,125,270,2
Lyubov Blinova,Любовь Блинова,F,SBD,Wraps,Yes,1989-09-01,Amateur Open,63.5,67.5,Рельеф,80,90,-95,90,45,50,-55,,50,90,100,110,110,250,3
Irina Batsileva,Ирина Бацилева,F,SBD,Wraps,Yes,1993-04-16,Amateur Open,65.3,67.5,Угловский Район,-100,-100,-100,,,,,,,,,,,,DQ
Evgeniya Kuzkina,Евгения Кузькина,F,B,Raw,Yes,1991-04-05,Amateur Open,47.45,48,Рельеф,,,,,52.5,-55,55,,55,,,,,55,1
Elena Lykasova,Елена Лыкасова,F,B,Raw,Yes,1991-09-12,Amateur Open,48,48,Ярость Тигра,,,,,50,-55,-55,,50,,,,,50,2
Valentina Menovshchikova,Валентина Меновщикова,F,B,Raw,Yes,1990-12-30,Amateur Open,47.4,48,Рельеф,,,,,40,-47.5,-47.5,,40,,,,,40,3
Ekaterina Vekman,Екатерина Векман,F,B,Raw,Yes,1993-09-06,Amateur Open,49.3,52,Рельеф,,,,,-45,47.5,52.5,,52.5,,,,,52.5,1
Yuliya Vorozhtsova,Юлия Ворожцова,F,B,Raw,Yes,1986-12-07,Amateur Open,51.55,52,Сафари,,,,,50,52.5,-60,,52.5,,,,,52.5,2
Tatyana Bushta,Татьяна Бушта,F,B,Raw,Yes,1982-01-06,Amateur Open,50.4,52,Сталь. Медведь,,,,,42.5,45,47.5,,47.5,,,,,47.5,3
Evgeniya Sanarova,Евгения Санарова,F,B,Raw,Yes,1978-11-17,Amateur Open,51.55,52,Рельеф,,,,,35,40,-42.5,,40,,,,,40,4
Yuliya Kolbina,Юлия Колбина,F,B,Raw,Yes,1978-10-06,Amateur Open,51.4,52,Рельеф,,,,,-45,-45,-45,,,,,,,,DQ
Elena Butakova,Елена Бутакова,F,B,Raw,Yes,1990-12-12,Amateur Open,51.4,52,Хамер Фит,,,,,-45,-52.5,-52.5,,,,,,,,DQ
Alena Rozhkovskaya,Алена Рожковская,F,B,Raw,Yes,1986-01-14,Amateur Open,58,60,Рельеф,,,,,55,57.5,-60,,57.5,,,,,57.5,1
Larisa Chernobaeva,Лариса Чернобаева,F,B,Raw,Yes,1980-12-22,Amateur Open,56.1,60,Сталь. Медведь,,,,,47.5,52.5,55,,55,,,,,55,2
Darya Yalama,Дарья Ялама,F,B,Raw,Yes,1987-03-25,Amateur Open,59.3,60,Сталь. Медведь,,,,,45,50,55,,55,,,,,55,3
Lyudmila Bachinina,Людмила Бачинина,F,B,Raw,Yes,1986-09-05,Amateur Open,59.95,60,Сталь. Медведь,,,,,50,55,-57.5,,55,,,,,55,4
Marina Peretyatko,Марина Перетятько,F,B,Raw,Yes,1987-04-20,Amateur Open,58.65,60,Яровое,,,,,-50,50,-55,,50,,,,,50,5
Anna Yan,Анна Ян,F,B,Raw,Yes,1990-12-28,Amateur Open,59.65,60,Рельеф,,,,,-50,-55,-55,,,,,,,,DQ
Irina Denisova,Ирина Денисова,F,B,Raw,Yes,1990-02-10,Amateur Open,67.45,67.5,Ярость Тигра,,,,,67.5,-72.5,72.5,,72.5,,,,,72.5,1
Tatyana Slepokurova,Татьяна Слепокурова,F,B,Raw,Yes,1969-01-07,Amateur Open,65.6,67.5,Сталь. Медведь,,,,,50,55,60,,60,,,,,60,2
Marina Chernoshtan,Марина Черноштан,F,B,Raw,Yes,1977-08-21,Amateur Open,65.85,67.5,Рельеф,,,,,57.5,-60,60,,60,,,,,60,3
Ekaterina Koshkareva,Екатерина Кошкарева,F,B,Raw,Yes,1991-08-22,Amateur Open,67,67.5,Рельеф,,,,,55,60,-67.5,,60,,,,,60,4
Elvira Makova,Эльвира Макова,F,B,Raw,Yes,1977-11-16,Amateur Open,66.8,67.5,Рельеф,,,,,-47.5,52.5,55,,55,,,,,55,5
Lyubov Blinova,Любовь Блинова,F,B,Raw,Yes,1989-09-01,Amateur Open,63.5,67.5,Рельеф,,,,,45,50,-55,,50,,,,,50,6
Anna Novoselova,Анна Новоселова,F,D,Raw,Yes,1990-01-01,Amateur Open,59.25,60,Стальной Медведь Новосибирск,,,,,,,,,,135,145,-150,145,145,1
Larisa Chernobaeva,Лариса Чернобаева,F,D,Raw,Yes,1980-12-22,Amateur Open,56.1,60,Стальной Медведь Новосибирск,,,,,,,,,,127.5,137.5,-147.5,137.5,137.5,2
Alena Rozhkovskaya,Алена Рожковская,F,D,Raw,Yes,1986-01-14,Amateur Open,58,60,Рельеф,,,,,,,,,,110,117.5,122.5,122.5,122.5,3
Darya Yalama,Дарья Ялама,F,D,Raw,Yes,1987-03-25,Amateur Open,59.3,60,Стальной Медведь Новосибирск,,,,,,,,,,-110,110,-127.5,110,110,4
Anastasiya Renkevich,Анастасия Ренкевич,F,D,Raw,Yes,1985-02-16,Amateur Open,60,60,Рельеф,,,,,,,,,,100,-112.5,-112.5,100,100,5
Marina Peretyatko,Марина Перетятько,F,D,Raw,Yes,1987-04-20,Amateur Open,58.65,60,Яровое,,,,,,,,,,90,95,-100,95,95,6
Tatyana Slepokurova,Татьяна Слепокурова,F,D,Raw,Yes,1969-01-07,Amateur Open,65.6,67.5,Стальной Медведь Новосибирск,,,,,,,,,,120,130,140,140,140,1
Elvira Makova,Эльвира Макова,F,D,Raw,Yes,1977-11-16,Amateur Open,66.8,67.5,Рельеф,,,,,,,,,,110,120,125,125,125,2
Lyubov Blinova,Любовь Блинова,F,D,Raw,Yes,1989-09-01,Amateur Open,63.5,67.5,Рельеф,,,,,,,,,,90,100,110,110,110,3
Vera Volobueva,Вера Волобуева,F,SBD,Wraps,Yes,1957-03-23,Amateur Masters 60-64,59.25,60,Рельеф,95,97.5,100,100,55,57.5,60,,60,110,115,120,120,280,1
Irina Zotova,Ирина Зотова,F,SBD,Wraps,Yes,1973-11-29,Amateur Masters 40-44,82.35,82.5,Рельеф,105,-115,-115,105,57.5,62.5,-65,,62.5,110,120,130,130,297.5,1
Nadezhda Efremova,Надежда Ефремова,F,SBD,Wraps,Yes,1959-06-01,Amateur Masters 55-59,57.95,60,Рельеф,70,-80,-80,70,45,-50,50,,50,90,-95,95,95,215,1
Olga Stulova,Ольга Стулова,F,B,Raw,Yes,1956-09-16,Amateur Masters 60-64,50,52,Рельеф,,,,,40,42.5,45,,45,,,,,45,1
Marina Kazantseva,Марина Казанцева,F,B,Raw,Yes,1976-03-05,Amateur Masters 40-44,50.45,52,Рельеф,,,,,47.5,-52.5,52.5,,52.5,,,,,52.5,1
Evgeniya Poleshchuk,Евгения Полещук,F,B,Raw,Yes,1974-11-24,Amateur Masters 40-44,59.8,60,Магис Спорт,,,,,57.5,62.5,-70,,62.5,,,,,62.5,1
Aleksey Stotskiy,Алексей Стоцкий,M,SBD,Wraps,Yes,1983-11-05,Amateur Open,66.45,67.5,Рельеф,170,180,185,185,110,-115,115,,115,240,255,-260,255,555,1
Nikita Vsevolodov,Никита Всеволодов,M,SBD,Wraps,Yes,1992-08-19,Amateur Open,66.25,67.5,с. Крутиха,160,167.5,,167.5,125,127.5,132.5,,132.5,190,195,200,200,500,2
Artem Vdovin,Артем Вдовин,M,SBD,Wraps,Yes,1992-01-03,Amateur Open,74.55,75,Рельеф,-160,160,170,170,120,-130,-130,,120,-205,205,-220,205,495,1
Denis Osintsev,Денис Осинцев,M,SBD,Wraps,Yes,1996-09-11,Amateur Open,80.3,82.5,Рельеф,220,-230,230,230,140,147.5,-152.5,,147.5,250,265,-280,265,642.5,1
Sergey Karsakov,Сергей Карсаков,M,SBD,Wraps,Yes,1988-12-24,Amateur Open,81.9,82.5,Рельеф,170,180,-185,180,125,130,-135,,130,230,-250,-262.5,230,540,2
Aleksandr Yakubov,Александр Якубов,M,SBD,Wraps,Yes,1980-10-21,Amateur Open,79.5,82.5,Рельеф,170,180,185,185,-120,-125,125,,125,190,200,205,205,515,3
Roman Dmitriev,Роман Дмитриев,M,SBD,Wraps,Yes,1992-10-14,Amateur Open,79.95,82.5,Рельеф,140,155,-170,155,-95,105,-110,,105,160,175,187.5,187.5,447.5,4
Konstantin Stepanov,Константин Степанов,M,SBD,Wraps,Yes,1986-01-11,Amateur Open,82.05,82.5,Рельеф,-180,180,-185,180,-120,-120,-120,,,-220,,,,180,5
Evgeniy Tsukanov,Евгений Цуканов,M,SBD,Wraps,Yes,1990-01-25,Amateur Open,89.5,90,Рельеф,170,190,-200,190,130,140,147.5,,147.5,265,-282.5,-282.5,265,602.5,1
Aleksey Yartsev,Алексей Ярцев,M,SBD,Wraps,Yes,1988-11-12,Amateur Open,88.35,90,Pitbull Gym,155,165,175,175,115,120,-125,,120,-220,230,-247.5,230,525,2
Sergey Konovalov #1,Сергей Коновалов,M,SBD,Wraps,Yes,1987-05-23,Amateur Open,100,100,Рельеф,240,255,-265,255,185,200,-212.5,,200,255,272.5,-282.5,272.5,727.5,1
Yaroslav Bryutov,Ярослав Брютов,M,SBD,Wraps,Yes,1986-11-17,Amateur Open,98.2,100,Амтел,175,185,-190,185,130,140,-150,,140,205,215,225,225,550,2
Ivan Kazantsev,Иван Казанцев,M,SBD,Wraps,Yes,1980-01-01,Amateur Open,109.95,110,Рельеф,230,250,-255,250,130,-140,-140,,130,210,-242.5,242.5,242.5,622.5,1
Maksim Matveyev,Максим Матвеев,M,SBD,Wraps,Yes,1987-10-05,Amateur Open,108.35,110,Рельеф,-200,200,210,210,140,-147.5,-150,,140,195,210,-240,210,560,2
Stanislav Konyaev,Станислав Коняев,M,B,Raw,Yes,1992-04-09,Amateur Open,58.9,60,г. Рубцовск,,,,,-100,107.5,-115,,107.5,,,,,107.5,1
Vyacheslav Afanasev,Вячеслав Афанасьев,M,B,Raw,Yes,1978-12-09,Amateur Open,58.1,60,г. Рубцовск,,,,,100,105,-110,,105,,,,,105,2
Nikita Vsevolodov,Никита Всеволодов,M,B,Raw,Yes,1992-08-19,Amateur Open,66.25,67.5,с. Крутиха,,,,,125,127.5,132.5,,132.5,,,,,132.5,1
Aleksandr Kandrashkin,Александр Кандрашкин,M,B,Raw,Yes,1986-08-17,Amateur Open,65.85,67.5,Рельеф,,,,,130,-140,-140,,130,,,,,130,2
Aleksey Stotskiy,Алексей Стоцкий,M,B,Raw,Yes,1983-11-05,Amateur Open,66.45,67.5,Рельеф,,,,,110,-115,115,,115,,,,,115,3
Igor Risto,Игорь Ристо,M,B,Raw,Yes,1993-04-14,Amateur Open,67.15,67.5,Сафари,,,,,100,-110,-110,,100,,,,,100,4
Andrey Goncharov,Андрей Гончаров,M,B,Raw,Yes,1984-01-27,Amateur Open,67.3,67.5,Сафари,,,,,-95,100,-110,,100,,,,,100,5
Sergey Rudakov,Сергей Рудаков,M,B,Raw,Yes,1979-05-18,Amateur Open,65.15,67.5,Рельеф,,,,,-127.5,-127.5,-127.5,,,,,,,,DQ
Nikita Chebanov,Никита Чебанов,M,B,Raw,Yes,1985-05-25,Amateur Open,74.6,75,Рельеф,,,,,130,137.5,-140,,137.5,,,,,137.5,1
Dmitriy Vologodskiy,Дмитрий Вологодский,M,B,Raw,Yes,1990-04-18,Amateur Open,70.75,75,,,,,,120,130,-137.5,,130,,,,,130,2
Artem Vdovin,Артем Вдовин,M,B,Raw,Yes,1992-01-03,Amateur Open,74.55,75,Рельеф,,,,,120,-130,-130,,120,,,,,120,3
Vladimir Dzhumaev,Владимир Джумаев,M,B,Raw,Yes,1986-09-06,Amateur Open,74.1,75,Рельеф,,,,,90,-110,110,,110,,,,,110,4
Dmitriy Komarin,Дмитрий Комарин,M,B,Raw,Yes,1992-03-30,Amateur Open,80.3,82.5,ДЮСШ№10,,,,,150,155,-160,,155,,,,,155,1
Svyatoslav Novozhilov,Святослав Новожилов,M,B,Raw,Yes,1987-08-07,Amateur Open,77.75,82.5,г. Рубцовск,,,,,140,145,147.5,,147.5,,,,,147.5,2
Denis Osintsev,Денис Осинцев,M,B,Raw,Yes,1996-09-11,Amateur Open,80.3,82.5,Рельеф,,,,,140,147.5,-152.5,,147.5,,,,,147.5,3
Ilya Ponomarev,Илья Пономарев,M,B,Raw,Yes,1987-02-18,Amateur Open,81.5,82.5,Рельеф,,,,,147.5,-155,-155,,147.5,,,,,147.5,4
Artem Starovoytov,Артем Старовойтов,M,B,Raw,Yes,1989-08-03,Amateur Open,78.9,82.5,Аврора,,,,,-125,125,130,,130,,,,,130,5
Sergey Rogov,Сергей Рогов,M,B,Raw,Yes,1977-05-24,Amateur Open,81,82.5,Рельеф,,,,,122.5,-130,130,,130,,,,,130,6
Sergey Karsakov,Сергей Карсаков,M,B,Raw,Yes,1988-12-24,Amateur Open,81.9,82.5,Рельеф,,,,,125,130,-135,,130,,,,,130,7
Dmitriy Bychkov,Дмитрий Бычков,M,B,Raw,Yes,1980-08-20,Amateur Open,82.5,82.5,г. Рубцовск,,,,,125,130,-140,,130,,,,,130,8
Aleksandr Yakubov,Александр Якубов,M,B,Raw,Yes,1980-10-21,Amateur Open,79.5,82.5,Рельеф,,,,,-120,-125,125,,125,,,,,125,9
Roman Dmitriev,Роман Дмитриев,M,B,Raw,Yes,1992-10-14,Amateur Open,79.95,82.5,Рельеф,,,,,-95,105,-110,,105,,,,,105,10
Konstantin Stepanov,Константин Степанов,M,B,Raw,Yes,1986-01-11,Amateur Open,82.05,82.5,Рельеф,,,,,-120,-120,-120,,,,,,,,DQ
Sergey Lodzhanskiy,Сергей Лоджанский,M,B,Raw,Yes,1990-02-23,Amateur Open,89.25,90,Рельеф,,,,,157.5,-170,-170,,157.5,,,,,157.5,1
Aleksandr Guzenko,Александр Гузенко,M,B,Raw,Yes,1978-01-16,Amateur Open,86.7,90,Шипуново,,,,,152.5,155,-157.5,,155,,,,,155,2
Vladimir Kulikov,Владимир Куликов,M,B,Raw,Yes,1991-07-05,Amateur Open,89.25,90,Рельеф,,,,,147.5,155,,,155,,,,,155,3
Evgeniy Tsukanov,Евгений Цуканов,M,B,Raw,Yes,1990-01-25,Amateur Open,89.5,90,Рельеф,,,,,130,140,147.5,,147.5,,,,,147.5,4
Aleksandr Yudin,Александр Юдин,M,B,Raw,Yes,1980-04-26,Amateur Open,87.7,90,Атлант,,,,,140,145,-155,,145,,,,,145,5
Aleksey Yartsev,Алексей Ярцев,M,B,Raw,Yes,1988-11-12,Amateur Open,88.35,90,Pitbull Gym,,,,,115,120,-125,,120,,,,,120,6
Sergey Konovalov #1,Сергей Коновалов,M,B,Raw,Yes,1987-05-23,Amateur Open,100,100,Рельеф,,,,,185,200,-212.5,,200,,,,,200,1
Vadim Shveyko,Вадим Швейко,M,B,Raw,Yes,1980-01-01,Amateur Open,94.8,100,,,,,,162.5,170,175,,175,,,,,175,2
Aleksandr Khodykin,Александр Ходыкин,M,B,Raw,Yes,1992-07-27,Amateur Open,99.65,100,с. Шипуново,,,,,150,162.5,167.5,,167.5,,,,,167.5,3
Egor Aksenov,Егор Аксенов,M,B,Raw,Yes,1991-05-04,Amateur Open,96.65,100,Рельеф,,,,,162.5,-170,-170,,162.5,,,,,162.5,4
Evgeniy Shevchenko,Евгений Шевченко,M,B,Raw,Yes,1983-07-29,Amateur Open,96.75,100,Рельеф,,,,,155,162.5,-165,,162.5,,,,,162.5,5
Anatoliy Valinchus,Анатолий Валинчус,M,B,Raw,Yes,1992-03-10,Amateur Open,98.15,100,Рельеф,,,,,152.5,162.5,-165,,162.5,,,,,162.5,6
Vitaliy Chukaev,Виталий Чукаев,M,B,Raw,Yes,1979-03-15,Amateur Open,98.1,100,Рельеф,,,,,155,-162.5,-162.5,,155,,,,,155,7
Artem Feysh,Артем Фейш,M,B,Raw,Yes,1990-01-01,Amateur Open,97.15,100,,,,,,142,150,-162.5,,150,,,,,150,8
Sergey Plotnikov,Сергей Плотников,M,B,Raw,Yes,1984-01-15,Amateur Open,99.2,100,Рельеф,,,,,142.5,-150,-150,,142.5,,,,,142.5,9
Yaroslav Bryutov,Ярослав Брютов,M,B,Raw,Yes,1986-11-17,Amateur Open,98.2,100,Амтел,,,,,130,140,-150,,140,,,,,140,10
Oleg Belkin,Олег Белкин,M,B,Raw,Yes,1970-09-10,Amateur Open,108.35,110,Рельеф,,,,,180,-190,-190,,180,,,,,180,1
Nikita Nemchenko,Никита Немченко,M,B,Raw,Yes,1989-01-30,Amateur Open,110,110,Рельеф,,,,,150,-160,160,,160,,,,,160,2
Maksim Matveyev,Максим Матвеев,M,B,Raw,Yes,1987-10-05,Amateur Open,108.35,110,Рельеф,,,,,140,-147.5,-150,,140,,,,,140,3
Ivan Kazantsev,Иван Казанцев,M,B,Raw,Yes,1980-01-01,Amateur Open,109.95,110,Рельеф,,,,,130,-140,-140,,130,,,,,130,4
Andrey Alyunin,Андрей Алюнин,M,B,Raw,Yes,1981-01-16,Amateur Open,128.75,140,Рельеф,,,,,200,210,215,,215,,,,,215,1
Sergey Polovinkin,Сергей Половинкин,M,B,Raw,Yes,1992-08-29,Amateur Open,75,75,ДЮСШ№10,,,,,132.5,137.5,140,,140,,,,,140,1
Dmitriy Chebotarev,Дмитрий Чеботарев,M,B,Raw,Yes,,Amateur Open,73.4,75,,,,,,,,,,,,,,,,DQ
Aleksey Stotskiy,Алексей Стоцкий,M,D,Raw,Yes,1983-11-05,Amateur Open,66.45,67.5,Рельеф,,,,,,,,,,240,255,-260,255,255,1
Nikita Vsevolodov,Никита Всеволодов,M,D,Raw,Yes,1992-08-19,Amateur Open,66.25,67.5,с. Крутиха,,,,,,,,,,190,195,200,200,200,2
Maksim Kovalev,Максим Ковалев,M,D,Raw,Yes,1987-01-28,Amateur Open,66.65,67.5,Стальной Медведь Новосибирск,,,,,,,,,,192.5,-220,-220,192.5,192.5,3
Artem Vdovin,Артем Вдовин,M,D,Raw,Yes,1992-01-03,Amateur Open,74.55,75,Рельеф,,,,,,,,,,-205,205,-220,205,205,1
Timofey Ryabtsev,Тимофей Рябцев,M,D,Raw,Yes,1990-07-19,Amateur Open,70.6,75,Рельеф,,,,,,,,,,170,180,-190,180,180,2
Vladimir Kotenev,Владимир Котенев,M,D,Raw,Yes,1991-05-01,Amateur Open,82.4,82.5,Рельеф,,,,,,,,,,260,-273,273,273,273,1
Denis Osintsev,Денис Осинцев,M,D,Raw,Yes,1996-09-11,Amateur Open,80.3,82.5,Рельеф,,,,,,,,,,250,265,-280,265,265,2
Andrey Chikodanov,Андрей Чикоданов,M,D,Raw,Yes,1984-08-06,Amateur Open,81.35,82.5,Сафари,,,,,,,,,,207.5,217.5,232.5,232.5,232.5,3
Danil Yartsev,Данил Ярцев,M,D,Raw,Yes,1992-11-07,Amateur Open,80.6,82.5,Pitbull Gym,,,,,,,,,,-220,230,-247.5,230,230,4
Sergey Karsakov,Сергей Карсаков,M,D,Raw,Yes,1988-12-24,Amateur Open,81.9,82.5,Рельеф,,,,,,,,,,230,-250,-262.5,230,230,5
Roman Panov,Роман Панов,M,D,Raw,Yes,1985-05-15,Amateur Open,82.3,82.5,Рельеф,,,,,,,,,,205,217.5,-222.5,217.5,217.5,6
Aleksandr Yakubov,Александр Якубов,M,D,Raw,Yes,1980-10-21,Amateur Open,79.5,82.5,Рельеф,,,,,,,,,,190,200,205,205,205,7
Dmitriy Bondarenko,Дмитрий Бондаренко,M,D,Raw,Yes,1990-07-26,Amateur Open,80.4,82.5,Рельеф,,,,,,,,,,187.5,195,-217.5,195,195,8
Roman Dmitriev,Роман Дмитриев,M,D,Raw,Yes,1992-10-14,Amateur Open,79.95,82.5,Рельеф,,,,,,,,,,160,175,187.5,187.5,187.5,9
Konstantin Stepanov,Константин Степанов,M,D,Raw,Yes,1986-01-11,Amateur Open,82.05,82.5,Рельеф,,,,,,,,,,-220,,,,,DQ
Evgeniy Tsukanov,Евгений Цуканов,M,D,Raw,Yes,1990-01-25,Amateur Open,89.5,90,Рельеф,,,,,,,,,,265,-282.5,-282.5,265,265,1
Ivan Tyupin,Иван Тюпин,M,D,Raw,Yes,1987-08-13,Amateur Open,89.25,90,Рельеф,,,,,,,,,,230,245,-257.5,245,245,2
Konstantin Kukovyakin,Константин Куковякин,M,D,Raw,Yes,1985-06-26,Amateur Open,88.7,90,Рельеф,,,,,,,,,,215,225,235,235,235,3
Aleksey Yartsev,Алексей Ярцев,M,D,Raw,Yes,1988-11-12,Amateur Open,88.35,90,Pitbull Gym,,,,,,,,,,-220,230,-247.5,230,230,4
Aleksey Nekrasov,Алексей Некрасов,M,D,Raw,Yes,1986-11-25,Amateur Open,89,90,Рельеф,,,,,,,,,,205,215,-225,215,215,5
Vadim Ivlev,Вадим Ивлев,M,D,Raw,Yes,1987-12-15,Amateur Open,88.85,90,Рельеф,,,,,,,,,,-200,-200,200,200,200,6
Leonid Shrayber,Леонид Шрайбер,M,D,Raw,Yes,1991-01-21,Amateur Open,90,90,Рельеф,,,,,,,,,,200,-215,-215,200,200,7
Sergey Konovalov #1,Сергей Коновалов,M,D,Raw,Yes,1987-05-23,Amateur Open,100,100,Рельеф,,,,,,,,,,255,272.5,-282.5,272.5,272.5,1
Evgeniy Shevchenko,Евгений Шевченко,M,D,Raw,Yes,1983-07-29,Amateur Open,96.75,100,Рельеф,,,,,,,,,,220,235,245,245,245,2
Yaroslav Bryutov,Ярослав Брютов,M,D,Raw,Yes,1986-11-17,Amateur Open,98.2,100,Амтел,,,,,,,,,,205,215,225,225,225,3
Andrey Zinyakov,Андрей Зиняков,M,D,Raw,Yes,1987-02-05,Amateur Open,96,100,Рельеф,,,,,,,,,,205,215,-220,215,215,4
Aleksey Borzin,Алексей Борзин,M,D,Raw,Yes,1989-07-16,Amateur Open,96.8,100,Рельеф,,,,,,,,,,180,-190,190,190,190,5
Evgeniy Ostrovskikh,Евгений Островских,M,SBD,Wraps,Yes,1973-06-17,Amateur Masters 40-44,66.15,67.5,Рельеф,125,-135,-135,125,80,85,-87.5,,85,185,195,200,200,410,1
Konstantin Rogov,Константин Рогов,M,SBD,Wraps,Yes,1975-11-16,Amateur Masters 40-44,81.45,82.5,Рельеф,150,160,170,170,110,120,125,,125,185,200,-217.5,200,495,1
Sergey Yurkin,Сергей Юркин,M,SBD,Wraps,Yes,1969-02-03,Amateur Masters 45-49,93.75,100,Рельеф,165,-175,180,180,125,132.5,-135,,132.5,165,185,-205,185,497.5,1
Dmitriy Kazarinov,Дмитрий Казаринов,M,SBD,Wraps,Yes,1965-10-13,Amateur Masters 50-54,97.45,100,СК Титан г.Бийск,175,185,190,190,140,145,150,,150,190,205,215,215,555,1
Boris Akulenko,Борис Акуленко,M,B,Raw,Yes,1975-06-26,Amateur Masters 40-44,97.6,100,Антей,,,,,120,137.5,140,,140,,,,,140,1
Viktor Talovskiy,Виктор Таловский,M,B,Raw,Yes,1975-01-01,Amateur Masters 40-44,87.65,90,Атлант,,,,,130,135,140,,140,,,,,140,1
Sergey Krovyakov,Сергей Кровяков,M,B,Raw,Yes,1972-08-04,Amateur Masters 40-44,88.75,90,Рельеф,,,,,-132.5,132.5,-142.5,,132.5,,,,,132.5,2
Evgeniy Golubev,Евгений Голубев,M,B,Raw,Yes,1973-10-02,Amateur Masters 40-44,89.55,90,Рельеф,,,,,130,-135,-135,,130,,,,,130,3
Andrey Smirnov,Андрей Смирнов,M,B,Raw,Yes,1974-07-21,Amateur Masters 40-44,85.4,90,Рельеф,,,,,120,-130,-130,,120,,,,,120,4
Oleg Belkin,Олег Белкин,M,B,Raw,Yes,1970-09-10,Amateur Masters 45-49,108.35,110,Рельеф,,,,,190,-201,-201,,190,,,,,190,1
Alesey Tarakanov,Алесей Тараканов,M,B,Raw,Yes,1969-01-22,Amateur Masters 45-49,89.4,90,Магис Спорт,,,,,137.5,-140,-140,,137.5,,,,,137.5,1
Pavel Lebedko,Павел Лебедько,M,B,Raw,Yes,1967-03-12,Amateur Masters 50-54,81.2,82.5,Рельеф,,,,,125,-130,-130,,125,,,,,125,1
Vyacheslav Nikolaev,Вячеслав Николаев,M,B,Raw,Yes,1956-07-10,Amateur Masters 60-64,99,100,Стальной Медведь Новосибирск,,,,,140,150,,,150,,,,,150,1
Marat Utegenov,Марат Утегенов,M,B,Raw,Yes,1977-01-01,Amateur Masters 40-44,87.3,90,Аврора,,,,,130,135,-140,,135,,,,,135,1
Vadim Popov,Вадим Попов,M,B,Raw,No,1968-12-27,Pro Masters 45-49,82.5,82.5,Рельеф,,,,,160,-170,-170,,160,,,,,160,1
Aleksey Ladik,Алексей Ладик,M,D,Raw,Yes,1970-12-31,Amateur Masters 45-49,110.65,125,с. Шипуново,,,,,,,,,,200,250,,250,250,1
Vyacheslav Nikolaev,Вячеслав Николаев,M,D,Raw,Yes,1956-07-10,Amateur Masters 60-64,99,100,Стальной Медведь Новосибирск,,,,,,,,,,220,235,,235,235,1
Artur Tsynk,Артур Цынк,M,SBD,Wraps,No,1990-01-15,Pro Open,82.5,82.5,Рельеф,220,230,240,240,-135,-135,135,,135,-230,240,250,250,625,1
Navruz Rasulov,Навруз Расулов,M,SBD,Wraps,No,,Pro Open,82.5,82.5,Рельеф,180,190,-200,190,135,140,150,,150,180,200,210,210,550,2
Aleksandr Maltsev,Александр Мальцев,M,SBD,Wraps,No,1983-01-27,Pro Open,89.75,90,Рельеф,220,235,250,250,200,210,215,,215,250,270,285,285,750,1
Maksim Panfilov,Максим Панфилов,M,SBD,Wraps,No,1992-01-24,Pro Open,89.35,90,Кемерово Пульс,215,225,-235,225,170,-177.5,177.5,,177.5,215,-225,-225,215,617.5,2
Aleksey Lychagin,Алексей Лычагин,M,SBD,Wraps,No,1983-08-04,Pro Open,86.75,90,Рельеф,185,195,200,200,140,-147.5,147.5,,147.5,235,242.5,250,250,597.5,3
Maksim Titov,Максим Титов,M,SBD,Wraps,No,1987-04-04,Pro Open,87.2,90,Рельеф,195,-205,205,205,140,-150,-150,,140,225,240,-245,240,585,4
Anton Kuropatkin,Антон Куропаткин,M,SBD,Wraps,No,1984-11-21,Pro Open,96.05,100,Рельеф,225,235,245,245,145,150,160,,160,275,280,295,295,700,1
Maksim Berlizov,Максим Берлизов,M,SBD,Wraps,No,1991-03-26,Pro Open,99.95,100,г.Мирный,200,230,245,245,180,190,,,190,230,250,265,265,700,2
Ivan Zolotoverkhov,Иван Золотоверхов,M,SBD,Wraps,No,1990-02-28,Pro Open,109.3,110,Рельеф,230,-240,240,240,185,195,200,,200,-290,290,310,310,750,1
Vladimir Sopin,Владимир Сопин,M,SBD,Wraps,No,1990-05-30,Pro Open,107.15,110,Рельеф,230,240,250,250,160,170,175,,175,-310,310,-325,310,735,2
Vladimir Cherepanov,Владимир Черепанов,M,SBD,Wraps,No,1989-04-04,Pro Open,109.5,110,Рельеф,-230,235,-245,235,155,165,-172.5,,165,280,300,-315,300,700,3
Nikita Shafikov,Никита Шафиков,M,SBD,Wraps,No,1993-05-15,Pro Open,127.95,140,Рельеф,220,230,240,240,140,-145,,,140,300,-320,320,320,700,1
Maksim Vasin,Максим Васин,M,B,Raw,No,1991-08-10,Pro Open,82.5,82.5,сила Сибири,,,,,170,180,-182.5,,180,,,,,180,1
Aleksandr Ostertak,Александр Остертак,M,B,Raw,No,1985-12-17,Pro Open,75.75,82.5,Рельеф,,,,,140,145,150,,150,,,,,150,2
Oleg Bespalov,Олег Беспалов,M,B,Raw,No,1991-11-12,Pro Open,78.95,82.5,,,,,,130,140,150,,150,,,,,150,3
Artur Tsynk,Артур Цынк,M,B,Raw,No,1990-01-15,Pro Open,82.5,82.5,Рельеф,,,,,-135,-135,135,,135,,,,,135,4
Aleksandr Maltsev,Александр Мальцев,M,B,Raw,No,1983-01-27,Pro Open,89.75,90,Рельеф,,,,,200,210,215,,215,,,,,215,1
Artem Konev,Артем Конев,M,B,Raw,No,1993-02-12,Pro Open,88.45,90,Рельеф,,,,,190,200,-212.5,,200,,,,,200,2
Anatoliy Krupko,Анатолий Крупко,M,B,Raw,No,1992-07-16,Pro Open,89.25,90,Рельеф,,,,,190,195,-200,,195,,,,,195,3
Maksim Panfilov,Максим Панфилов,M,B,Raw,No,1992-01-24,Pro Open,89.35,90,Кемерово Пульс,,,,,170,-177.5,177.5,,177.5,,,,,177.5,4
Aleksey Lychagin,Алексей Лычагин,M,B,Raw,No,1983-08-04,Pro Open,86.75,90,Рельеф,,,,,140,-147.5,147.5,,147.5,,,,,147.5,5
Maksim Titov,Максим Титов,M,B,Raw,No,1987-04-04,Pro Open,87.2,90,Рельеф,,,,,140,-150,-150,,140,,,,,140,6
Maksim Medvedev,Максим Медведев,M,B,Raw,No,1981-05-16,Pro Open,98.6,100,,,,,,190,205,210,,210,,,,,210,1
Maksim Berlizov,Максим Берлизов,M,B,Raw,No,1991-03-26,Pro Open,99.95,100,г.Мирный,,,,,180,190,,,190,,,,,190,2
Igor Fomin,Игорь Фомин,M,B,Raw,No,1981-12-28,Pro Open,98.55,100,Рельеф,,,,,165,170,-175,,170,,,,,170,3
Anton Kuropatkin,Антон Куропаткин,M,B,Raw,No,1984-11-21,Pro Open,96.05,100,Рельеф,,,,,145,150,160,,160,,,,,160,4
Aleksey Semchenko,Алексей Семченко,M,B,Raw,No,1981-02-11,Pro Open,99.9,100,Рельеф,,,,,-182.5,-182.5,-182.5,,,,,,,,DQ
Aleksey Stotskiy,Алексей Стоцкий,M,D,Raw,No,1983-11-05,Pro Open,66.45,67.5,Рельеф,,,,,,,,,,230,245,-260.5,245,245,1
Maksim Medvedev,Максим Медведев,M,D,Raw,No,1981-05-16,Pro Open,98.6,100,,,,,,,,,,,285,305,315,315,315,1
Anton Kuropatkin,Антон Куропаткин,M,D,Raw,No,1984-11-21,Pro Open,96.05,100,Рельеф,,,,,,,,,,275,280,295,295,295,2
Maksim Berlizov,Максим Берлизов,M,D,Raw,No,1991-03-26,Pro Open,99.95,100,г.Мирный,,,,,,,,,,230,250,265,265,265,3
Vladimir Sopin,Владимир Сопин,M,D,Raw,No,1990-05-30,Pro Open,107.15,110,Рельеф,,,,,,,,,,-310,310,-325,310,310,1
Ivan Zolotoverkhov,Иван Золотоверхов,M,D,Raw,No,1990-02-28,Pro Open,109.3,110,Рельеф,,,,,,,,,,-290,290,310,310,310,2
Vladimir Cherepanov,Владимир Черепанов,M,D,Raw,No,1989-04-04,Pro Open,109.5,110,Рельеф,,,,,,,,,,280,300,-315,300,300,3
Mikhail Skovronskiy,Михаил Сковронский,M,D,Raw,No,1979-10-16,Pro Open,106.15,110,Рельеф,,,,,,,,,,250,-260,-260,250,250,4
Aleksandr Shestupov,Александр Шеступов,M,D,Raw,No,1981-04-03,Pro Open,115.55,125,Фитнес Лайф,,,,,,,,,,240,255,,255,255,1
Sergey Kuklev,Сергей Куклев,M,SBD,Wraps,No,1997-12-13,Pro Teen 18-19,88,90,Рельеф,180,192.5,200,200,107.5,112.5,-120,,112.5,170,180,200,200,512.5,1
Nikita Ushkalenko,Никита Ушкаленко,M,SBD,Wraps,No,1996-04-05,Pro Juniors 20-23,99.4,100,Ярость Тигра,220,230,240,240,160,165,-170,,165,220,230,245,245,650,1
Valentin Ryndin,Валентин Рындин,M,SBD,Wraps,No,1995-07-19,Pro Juniors 20-23,110,110,Рельеф,215,225,-230,225,130,137.5,145,,145,240,255,272.5,272.5,642.5,1
Sergey Popov,Сергей Попов,M,SBD,Wraps,No,1995-05-30,Pro Juniors 20-23,80.05,82.5,Рельеф,180,190,200,200,115,122.5,127.5,,127.5,190,210,230,230,557.5,1
Ivan Simakov,Иван Симаков,M,SBD,Wraps,No,1999-12-14,Pro Teen 16-17,96.75,100,Рельеф,160,170,-175,170,115,120,-130,,120,200,-205,,200,490,1
Aleksey Dolgovyazov,Алексей Долговязов,M,B,Raw,No,1995-06-04,Pro Juniors 20-23,73.5,75,г. Омск,,,,,135,140,-147.5,,140,,,,,140,1
Sergey Neznanov,Сергей Незнанов,M,B,Raw,No,1997-08-21,Pro Teen 18-19,80.55,82.5,,,,,,120,130,-137.5,,130,,,,,130,1
Ilya Adamenko,Илья Адаменко,M,B,Raw,No,1994-07-11,Pro Juniors 20-23,107.7,110,Рельеф,,,,,145,155,-160,,155,,,,,155,1
Valentin Ryndin,Валентин Рындин,M,B,Raw,No,1995-07-19,Pro Juniors 20-23,110,110,Рельеф,,,,,130,137.5,145,,145,,,,,145,2
Sergey Popov,Сергей Попов,M,B,Raw,No,1995-05-30,Pro Juniors 20-23,80.05,82.5,Рельеф,,,,,115,122.5,127.5,,127.5,,,,,127.5,1
Vladislav Onishchuk,Владислав Онищук,M,B,Raw,No,1994-06-28,Pro Juniors 20-23,81.55,82.5,г. Омск,,,,,115,120,-130,,120,,,,,120,2
Aleksandra Gansh,Александра Ганш,F,SBD,Wraps,No,1993-03-05,Pro Open,66.25,67.5,Рельеф,115,125,132.5,132.5,57.5,62.5,65,,65,120,130,140,140,337.5,1
Anna Chubarova,Анна Чубарова,F,SBD,Wraps,No,1988-02-03,Pro Open,79.7,82.5,Рельеф,160,170,180,180,100,105,110,,110,170,180,190,190,480,1
Irina Molostova,Ирина Молостова,F,SBD,Wraps,No,1994-10-15,Pro Juniors 20-23,59.75,60,Рельеф,110,115,117.5,117.5,55,60,-65,,60,150,-160,-160,150,327.5,1
Agnessa Merkulova,Агнесса Меркулова,F,B,Raw,No,1988-03-09,Pro Open,52,52,Рельеф,,,,,-95,100,105,111,105,,,,,105,1
Inna Danko,Инна Данько,F,B,Raw,No,1978-01-01,Pro Open,50.7,52,Рельеф,,,,,37.5,40,-45,,40,,,,,40,2
Ivan Perevalov,Иван Перевалов,M,SBD,Wraps,Yes,2000-03-29,Amateur Teen 16-17,58.45,60,Угловский Район,90,95,100,100,65,72.5,-75,,72.5,135,140,152.5,152.5,325,1
Artem Andreev,Артем Андреев,M,SBD,Wraps,Yes,1999-07-15,Amateur Teen 16-17,58,60,Рельеф,87.5,97.5,-105,97.5,65,72.5,77.5,,77.5,110,122.5,135,135,310,2
Aleksandr Gladkikh,Александр Гладких,M,SBD,Wraps,Yes,1999-09-26,Amateur Teen 16-17,65.75,67.5,Рельеф,130,-140,140,140,90,95,-97.5,,95,-200,200,-210,200,435,1
Rauf Bakhshiev,Рауф Бахшиев,M,SBD,Wraps,Yes,1999-09-05,Amateur Teen 16-17,66.3,67.5,Угловский Район,145,-155,-155,145,80,-85,-85,,80,145,150,-165,150,375,2
Evgeniy Chevelev,Евгений Чевелев,M,SBD,Wraps,Yes,1998-08-31,Amateur Teen 18-19,60.9,67.5,АГАУ,85,95,-105,95,65,72.5,-77.5,,72.5,140,152.5,-160,152.5,320,1
Aleksandr Vlasov,Александр Власов,M,SBD,Wraps,Yes,1999-07-14,Amateur Teen 16-17,74.45,75,Рельеф,130,140,150,150,100,105,110,,110,160,170,-175,170,430,1
Anton Zhabin,Антон Жабин,M,SBD,Wraps,Yes,1999-09-08,Amateur Teen 16-17,79.15,82.5,Рельеф,160,170,-180,170,-110,110,-115,,110,200,210,-220,210,490,1
Aleksey Fentisov,Алексей Фентисов,M,SBD,Wraps,Yes,1999-06-30,Amateur Teen 16-17,76.35,82.5,Рельеф,-155,-165,-165,,110,115,-117.5,,115,,,,,,DQ
Mikhail Ostrozhinskiy,Михаил Острожинский,M,SBD,Wraps,Yes,1998-04-17,Amateur Teen 18-19,89.05,90,Рельеф,160,170,175,175,115,120,-125,,120,235,245,-257.5,245,540,1
Nikita Zhirov,Никита Жиров,M,SBD,Wraps,Yes,1997-07-01,Amateur Teen 18-19,91.4,100,Рельеф,180,-190,-190,180,112.5,-117.5,-117.5,,112.5,220,230,-235,230,522.5,1
Dmitriy Shevelev,Дмитрий Шевелев,M,SBD,Wraps,Yes,1996-10-05,Amateur Juniors 20-23,65.1,67.5,Рельеф,145,150,-155,150,90,95,100,,100,180,195,,195,445,1
Sergey Irkitov,Сергей Иркитов,M,SBD,Wraps,Yes,1995-05-29,Amateur Juniors 20-23,63.6,67.5,Рельеф,150,-160,-160,150,-107.5,107.5,112.5,,112.5,145,155,-165,155,417.5,2
Vitaliy Afanasev,Виталий Афанасьев,M,SBD,Wraps,Yes,1996-01-22,Amateur Juniors 20-23,74.25,75,Рельеф,-180,190,200,200,120,127.5,135,,135,205,-220,220,220,555,1
Igor Zolotarev,Игорь Золотарев,M,SBD,Wraps,Yes,1994-03-28,Amateur Juniors 20-23,74.85,75,Рельеф,165,175,-190,175,110,-115,-115,,110,205,215,-220,215,500,2
Dmitriy Korolkov,Дмитрий Корольков,M,SBD,Wraps,Yes,1995-05-18,Amateur Juniors 20-23,75,75,Рельеф,162.5,172.5,177.5,177.5,112.5,117.5,120,,120,180,-187.5,-187.5,180,477.5,3
Valeriy Shchennikov,Валерий Щенников,M,SBD,Wraps,Yes,1996-06-19,Amateur Juniors 20-23,74.05,75,Рельеф,155,-170,-170,155,100,107.5,-112.5,,107.5,180,-205,-205,180,442.5,4
Boris Genitenov,Борис Генитенов,M,SBD,Wraps,Yes,1995-10-27,Amateur Juniors 20-23,74.8,75,Рельеф,140,150,-160,150,90,-95,-95,,90,180,190,-205,190,430,5
Sergey Belyy,Сергей Белый,M,SBD,Wraps,Yes,1995-03-08,Amateur Juniors 20-23,72.85,75,Рельеф,120,132.5,-137.5,132.5,95,100,-102.5,,100,175,182.5,-190,182.5,415,6
Andrey Bulgakov,Андрей Булгаков,M,SBD,Wraps,Yes,1997-01-08,Amateur Juniors 20-23,81.8,82.5,Рельеф,170,185,-195,185,130,137.5,-145,,137.5,250,-265,-265,250,572.5,1
Ivan Shamrin,Иван Шамрин,M,SBD,Wraps,Yes,1995-06-27,Amateur Juniors 20-23,81.85,82.5,Рельеф,150,160,-170,160,115,122.5,-130,,122.5,210,230,-240,230,512.5,2
Andrey Andreychenko,Андрей Андрейченко,M,SBD,Wraps,Yes,1995-11-17,Amateur Juniors 20-23,98,100,АГАУ,170,180,190,190,142.5,145,-150,,145,210,225,237.5,237.5,572.5,1
Vladislav Naumov,Владислав Наумов,M,SBD,Wraps,Yes,1995-06-15,Amateur Juniors 20-23,96.6,100,ДЮСШ№10,-180,180,195,195,125,130,135,,135,200,210,220,220,550,2
Stanislav Ponomar,Станислав Пономарь,M,SBD,Wraps,Yes,1996-01-07,Amateur Juniors 20-23,107.6,110,Рельеф,-170,170,185,185,125,-132.5,-132.5,,125,210,220,230,230,540,1
Aleksandr Konovalov,Александр Коновалов,M,S,Wraps,Yes,,Amateur Teen 18-19,56,56,Рельеф,100,115,122.5,122.5,,,,,,,,,,122.5,1
Artem Voloshchenko,Артем Волощенко,M,B,Raw,Yes,2004-03-15,Amateur Teen 13,51.35,52,Рельеф,,,,,65,-70,-72.5,,65,,,,,65,1
Semen Bodyukov,Семен Бодюков,M,B,Raw,Yes,2002-12-25,Amateur Teen 14-15,51.8,52,Рельеф,,,,,52.5,57.5,60,,60,,,,,60,1
Yaroslav Khlebnikov,Ярослав Хлебников,M,B,Raw,Yes,2000-12-06,Amateur Teen 16-17,50.95,52,Рельеф,,,,,85,-90,90,,90,,,,,90,1
Danil Zinovev,Данил Зиновьев,M,B,Raw,Yes,2000-07-06,Amateur Teen 16-17,50.95,52,Сафари,,,,,67.5,75,-82.5,,75,,,,,75,2
Nikolay Medvedev,Николай Медведев,M,B,Raw,Yes,1998-08-19,Amateur Teen 18-19,48.5,52,Угловский Район,,,,,85,-95,95,,95,,,,,95,1
Aleksandr Chuporshnev,Александр Чупоршнев,M,B,Raw,Yes,1999-05-20,Amateur Teen 18-19,51.45,52,Рельеф,,,,,87.5,95,-97.5,,95,,,,,95,2
Aleksey Parfenov,Алексей Парфенов,M,B,Raw,Yes,2000-10-28,Amateur Teen 16-17,59.4,60,Рельеф,,,,,90,97.5,100,,100,,,,,100,1
Valentin Chauzov,Валентин Чаузов,M,B,Raw,Yes,,Amateur Teen 16-17,58.35,60,Рельеф,,,,,87.5,-90,-90,,87.5,,,,,87.5,2
Vadim Trushkov,Вадим Трушков,M,B,Raw,Yes,2000-08-27,Amateur Teen 16-17,60,60,Угловский Район,,,,,75,82.5,85,,85,,,,,85,3
Artem Andreev,Артем Андреев,M,B,Raw,Yes,1999-07-15,Amateur Teen 16-17,58,60,Рельеф,,,,,65,72.5,77.5,,77.5,,,,,77.5,4
Ivan Perevalov,Иван Перевалов,M,B,Raw,Yes,2000-03-29,Amateur Teen 16-17,58.45,60,Угловский Район,,,,,65,72.5,-75,,72.5,,,,,72.5,5
Kirill Shveyko,Кирилл Швейко,M,B,Raw,Yes,2001-12-05,Amateur Teen 14-15,61.7,67.5,Угловский Район,,,,,110,117.5,-122.5,,117.5,,,,,117.5,1
Ilya Kulagin,Илья Кулагин,M,B,Raw,Yes,1999-07-07,Amateur Teen 16-17,67.4,67.5,Рельеф,,,,,105,110,117.5,,117.5,,,,,117.5,1
Aleksandr Gladkikh,Александр Гладких,M,B,Raw,Yes,1999-09-26,Amateur Teen 16-17,65.75,67.5,Рельеф,,,,,90,95,-97.5,,95,,,,,95,2
Rauf Bakhshiev,Рауф Бахшиев,M,B,Raw,Yes,1999-09-05,Amateur Teen 16-17,66.3,67.5,Угловский Район,,,,,80,-85,-85,,80,,,,,80,3
Miroslav Kruglov,Мирослав Круглов,M,B,Raw,Yes,1998-12-24,Amateur Teen 18-19,65,67.5,Рельеф,,,,,-100,-100,100,,100,,,,,100,1
Evgeniy Chevelev,Евгений Чевелев,M,B,Raw,Yes,1998-08-31,Amateur Teen 18-19,60.9,67.5,АГАУ,,,,,65,72.5,-77.5,,72.5,,,,,72.5,2
Mikhail Lomaka,Михаил Ломака,M,B,Raw,Yes,1997-07-25,Amateur Teen 18-19,74.55,75,Рельеф,,,,,130,137.5,-140,,137.5,,,,,137.5,1
Aleksey Vegner,Алексей Вегнер,M,B,Raw,Yes,1997-09-21,Amateur Teen 18-19,74.1,75,Ювента,,,,,120,125,-130,,125,,,,,125,2
Nikolay Polyakov,Николай Поляков,M,B,Raw,Yes,1997-07-25,Amateur Teen 18-19,73.65,75,Пед. Универ,,,,,120,-130,-130,,120,,,,,120,3
Nikita Zavarzin,Никита Заварзин,M,B,Raw,Yes,1999-10-14,Amateur Teen 16-17,81.85,82.5,Рельеф,,,,,120,130,-135,,130,,,,,130,1
Aleksey Fentisov,Алексей Фентисов,M,B,Raw,Yes,1999-06-30,Amateur Teen 16-17,76.35,82.5,Рельеф,,,,,110,115,-117.5,,115,,,,,115,2
Anton Zhabin,Антон Жабин,M,B,Raw,Yes,1999-09-08,Amateur Teen 16-17,79.15,82.5,Рельеф,,,,,-110,110,-115,,110,,,,,110,3
Konstantin Treskov,Константин Тресков,M,B,Raw,Yes,1999-03-26,Amateur Teen 18-19,79.8,82.5,Рельеф,,,,,-147.5,147.5,-152.5,,147.5,,,,,147.5,1
Akhmet Muzhukhoev,Ахмет Мужухоев,M,B,Raw,Yes,1996-06-12,Amateur Juniors 20-23,66.5,67.5,Рельеф,,,,,125,127.5,-130,,127.5,,,,,127.5,1
Sergey Irkitov,Сергей Иркитов,M,B,Raw,Yes,1995-05-29,Amateur Juniors 20-23,63.6,67.5,Рельеф,,,,,-107.5,107.5,112.5,,112.5,,,,,112.5,2
Dmitriy Shevelev,Дмитрий Шевелев,M,B,Raw,Yes,1996-10-05,Amateur Juniors 20-23,65.1,67.5,Рельеф,,,,,90,95,100,,100,,,,,100,3
Vitaliy Afanasev,Виталий Афанасьев,M,B,Raw,Yes,1996-01-22,Amateur Juniors 20-23,74.25,75,Рельеф,,,,,120,127.5,135,,135,,,,,135,1
Denis Novak,Денис Новак,M,B,Raw,Yes,1994-08-02,Amateur Juniors 20-23,73.55,75,К-2 спорт,,,,,125,132.5,-137.5,,132.5,,,,,132.5,2
Radiy Logachev,Радий Логачев,M,B,Raw,Yes,1996-11-23,Amateur Juniors 20-23,74.95,75,Рельеф,,,,,120,125,-130,,125,,,,,125,3
Dmitriy Korolkov,Дмитрий Корольков,M,B,Raw,Yes,1995-05-18,Amateur Juniors 20-23,75,75,Рельеф,,,,,112.5,117.5,120,,120,,,,,120,4
Igor Zolotarev,Игорь Золотарев,M,B,Raw,Yes,1994-03-28,Amateur Juniors 20-23,74.85,75,Рельеф,,,,,110,-115,-115,,110,,,,,110,5
Valeriy Shchennikov,Валерий Щенников,M,B,Raw,Yes,1996-06-19,Amateur Juniors 20-23,74.05,75,Рельеф,,,,,100,107.5,-112.5,,107.5,,,,,107.5,6
Sergey Belyy,Сергей Белый,M,B,Raw,Yes,1995-03-08,Amateur Juniors 20-23,72.85,75,Рельеф,,,,,95,100,-102.5,,100,,,,,100,7
Boris Genitenov,Борис Генитенов,M,B,Raw,Yes,1995-10-27,Amateur Juniors 20-23,74.8,75,Рельеф,,,,,90,-95,-95,,90,,,,,90,8
Dmitriy Vershinin,Дмитрий Вершинин,M,B,Raw,Yes,1996-01-16,Amateur Juniors 20-23,73.65,75,Ювента,,,,,-115,-120,-120,,,,,,,,DQ
Andrey Bulgakov,Андрей Булгаков,M,B,Raw,Yes,1997-01-08,Amateur Juniors 20-23,81.8,82.5,Рельеф,,,,,130,137.5,-145,,137.5,,,,,137.5,1
Khasan Tolibov,Хасан Толибов,M,B,Raw,Yes,1995-02-18,Amateur Juniors 20-23,81.2,82.5,Рельеф,,,,,120,130,-135,,130,,,,,130,2
Ivan Shamrin,Иван Шамрин,M,B,Raw,Yes,1995-06-27,Amateur Juniors 20-23,81.85,82.5,Рельеф,,,,,115,122.5,-130,,122.5,,,,,122.5,3
Aleksandr Yakimets,Александр Якимец,M,B,Raw,Yes,1996-08-24,Amateur Juniors 20-23,88.85,90,Рельеф,,,,,160,-170,-170,,160,,,,,160,1
Yaroslav Khlebnikov,Ярослав Хлебников,M,D,Raw,Yes,2000-12-06,Amateur Teen 16-17,50.95,52,Рельеф,,,,,,,,,,125,-135,-135,125,125,1
Ruslan Bonchuk,Руслан Бончук,M,D,Raw,Yes,1999-08-13,Amateur Teen 16-17,55.8,56,Pitbull Gym,,,,,,,,,,170,190,-200,190,190,1
Nikita Shipulin,Никита Шипулин,M,D,Raw,Yes,1999-08-25,Amateur Teen 16-17,55.4,56,Рельеф,,,,,,,,,,165,172.5,-175,172.5,172.5,2
Aleksandr Legaev,Александр Легаев,M,D,Raw,Yes,2001-01-07,Amateur Teen 16-17,58.8,60,Рельеф,,,,,,,,,,175,190,-202.5,190,190,1
Ivan Perevalov,Иван Перевалов,M,D,Raw,Yes,2000-03-29,Amateur Teen 16-17,58.45,60,Угловский Район,,,,,,,,,,135,140,152.5,152.5,152.5,2
Daniil Maslennikov,Даниил Масленников,M,D,Raw,Yes,1999-10-23,Amateur Teen 16-17,59.25,60,Рельеф,,,,,,,,,,140,152.5,-175,152.5,152.5,3
Artem Andreev,Артем Андреев,M,D,Raw,Yes,1999-07-15,Amateur Teen 16-17,58,60,Рельеф,,,,,,,,,,110,122.5,135,135,135,4
Petr Byakhov,Петр Бяхов,M,D,Raw,Yes,2001-07-27,Amateur Teen 14-15,65,67.5,Рельеф,,,,,,,,,,117.5,125,130,130,130,1
Aleksandr Gladkikh,Александр Гладких,M,D,Raw,Yes,1999-09-26,Amateur Teen 16-17,65.75,67.5,Рельеф,,,,,,,,,,-200,200,-210,200,200,1
Rauf Bakhshiev,Рауф Бахшиев,M,D,Raw,Yes,1999-09-05,Amateur Teen 16-17,66.3,67.5,Угловский Район,,,,,,,,,,145,150,-165,150,150,2
Kirill Yudakov,Кирилл Юдаков,M,D,Raw,Yes,1999-09-20,Amateur Teen 16-17,70.2,75,Рельеф,,,,,,,,,,170,180,-190,180,180,1
Aleksandr Vlasov,Александр Власов,M,D,Raw,Yes,1999-07-14,Amateur Teen 16-17,74.45,75,Рельеф,,,,,,,,,,160,170,-175,170,170,2
Maksim Troshin,Максим Трошин,M,D,Raw,Yes,1999-01-12,Amateur Teen 18-19,73.85,75,Рельеф,,,,,,,,,,205,-210,-210,205,205,1
Anton Zhabin,Антон Жабин,M,D,Raw,Yes,1999-09-08,Amateur Teen 16-17,79.15,82.5,Рельеф,,,,,,,,,,200,210,-220,210,210,1
Andrey Litvinov,Андрей Литвинов,M,D,Raw,Yes,1999-05-21,Amateur Teen 18-19,79.6,82.5,Угловский Район,,,,,,,,,,175,187.5,200,200,200,2
Aleksey Fentisov,Алексей Фентисов,M,D,Raw,Yes,1999-06-30,Amateur Teen 16-17,76.35,82.5,Рельеф,,,,,,,,,,,,,,,DQ
Mikhail Ostrozhinskiy,Михаил Острожинский,M,D,Raw,Yes,1998-04-17,Amateur Teen 18-19,89.05,90,Рельеф,,,,,,,,,,235,245,-257.5,245,245,1
Oleg Grigorev,Олег Григорьев,M,D,Raw,Yes,1998-02-26,Amateur Teen 18-19,87.6,90,Рельеф,,,,,,,,,,200,212.5,225,225,225,2
Dmitriy Nosov,Дмитрий Носов,M,D,Raw,Yes,1998-09-11,Amateur Teen 18-19,106.9,110,Магис Спорт,,,,,,,,,,210,230,-245,230,230,1
Dmitriy Shevelev,Дмитрий Шевелев,M,D,Raw,Yes,1996-10-05,Amateur Juniors 20-23,65.1,67.5,Рельеф,,,,,,,,,,180,195,,195,195,1
Aleksandr Pobedennyy,Александр Победенный,M,D,Raw,Yes,1995-10-12,Amateur Juniors 20-23,64.9,67.5,Рельеф,,,,,,,,,,160,167.5,175,175,175,2
Sergey Irkitov,Сергей Иркитов,M,D,Raw,Yes,1995-05-29,Amateur Juniors 20-23,63.6,67.5,Рельеф,,,,,,,,,,145,155,-165,155,155,3
Vardan Petrosyan,Вардан Петросян,M,D,Raw,Yes,1997-02-03,Amateur Juniors 20-23,71.65,75,сила Сибири,,,,,,,,,,260,-270,275,275,275,1
Vitaliy Afanasev,Виталий Афанасьев,M,D,Raw,Yes,1996-01-22,Amateur Juniors 20-23,74.25,75,Рельеф,,,,,,,,,,205,-220,220,220,220,2
Igor Zolotarev,Игорь Золотарев,M,D,Raw,Yes,1994-03-28,Amateur Juniors 20-23,74.85,75,Рельеф,,,,,,,,,,205,215,-220,215,215,3
Boris Genitenov,Борис Генитенов,M,D,Raw,Yes,1995-10-27,Amateur Juniors 20-23,74.8,75,Рельеф,,,,,,,,,,180,190,-205,190,190,4
Sergey Belyy,Сергей Белый,M,D,Raw,Yes,1995-03-08,Amateur Juniors 20-23,72.85,75,Рельеф,,,,,,,,,,175,182.5,-190,182.5,182.5,5
Maksim Khozin,Максим Хозин,M,D,Raw,Yes,1993-06-09,Amateur Juniors 20-23,70.95,75,Рельеф,,,,,,,,,,180,-200,-200,180,180,6
Valeriy Shchennikov,Валерий Щенников,M,D,Raw,Yes,1996-06-19,Amateur Juniors 20-23,74.05,75,Рельеф,,,,,,,,,,180,-205,-205,180,180,7
Dmitriy Korolkov,Дмитрий Корольков,M,D,Raw,Yes,1995-05-18,Amateur Juniors 20-23,75,75,Рельеф,,,,,,,,,,180,-187.5,-187.5,180,180,8
Andrey Bulgakov,Андрей Булгаков,M,D,Raw,Yes,1997-01-08,Amateur Juniors 20-23,81.8,82.5,Рельеф,,,,,,,,,,250,-265,-265,250,250,1
Ivan Shamrin,Иван Шамрин,M,D,Raw,Yes,1995-06-27,Amateur Juniors 20-23,81.85,82.5,Рельеф,,,,,,,,,,210,230,-240,230,230,2
Artem Panchenko,Артем Панченко,M,D,Raw,Yes,1995-10-13,Amateur Juniors 20-23,81.85,82.5,,,,,,,,,,,177.5,187.5,-195,187.5,187.5,3
Dmitriy Kolomov,Дмитрий Коломов,M,D,Raw,Yes,1996-07-02,Amateur Juniors 20-23,88.75,90,Рельеф,,,,,,,,,,225,240,-257.5,240,240,1
Mikhail Titov #4,Михаил Титов,M,D,Raw,Yes,1996-11-06,Amateur Juniors 20-23,97,100,Рельеф,,,,,,,,,,235,240,-270,240,240,1
Andrey Andreychenko,Андрей Андрейченко,M,D,Raw,Yes,1995-11-17,Amateur Juniors 20-23,98,100,АГАУ,,,,,,,,,,210,225,237.5,237.5,237.5,2
Vladislav Naumov,Владислав Наумов,M,D,Raw,Yes,1995-06-15,Amateur Juniors 20-23,96.6,100,ДЮСШ№10,,,,,,,,,,200,210,220,220,220,3
Andrey Tomasik,Андрей Томасик,M,SBD,Multi-ply,Yes,1987-12-14,Amateur Open,80.1,82.5,Стальной Медведь Новосибирск,270,280,290,290,170,-177.5,-177.5,,170,230,245,,245,705,1
Leonid Kolpakov,Леонид Колпаков,M,SBD,Single-ply,Yes,,Amateur Teen 18-19,88.9,90,Стальной Медведь Новосибирск,190,200,210,210,200,217.5,-230,,217.5,215,235,257.5,257.5,685,1
Anatoliy Sukhachev,Анатолий Сухачев,M,SBD,Multi-ply,No,1992-10-19,Pro Open,86.65,90,Рельеф,320,-350,-350,320,-180,180,-190,,180,250,-260,260,260,760,1
Nikolay Naymushin,Николай Наймушин,M,SBD,Multi-ply,No,1993-08-13,Pro Open,88.5,90,Рельеф,-260,270,-280,270,200,210,-230,,210,240,-255,255,255,735,2
Aleksandr Bagaev,Александр Багаев,M,SBD,Single-ply,No,1986-04-04,Pro Open,98.7,100,Кемерово Пульс,-220,220,-235,220,250,272.5,-280,,272.5,200,-232.5,-232.5,200,692.5,1
Vidzhay Shaikov,Виджай Шаиков,M,SBD,Multi-ply,No,1990-07-14,Pro Open,97.9,100,Рельеф,330,340,350,350,230,240,250,,250,300,320,-330,320,920,1
Yuriy Karpov,Юрий Карпов,M,SBD,Multi-ply,No,1986-12-13,Pro Open,107.65,110,Рельеф,350,375,390,390,-290,290,300,,300,360,375,385,385,1075,1
Ivan Vasyunin,Иван Васюнин,M,SBD,Multi-ply,No,1983-08-01,Pro Open,101.95,110,г. Рубцовск,370,400,415,415,300,307.5,315,,315,315,325,342.5,342.5,1072.5,2
Nikolay Efanov,Николай Ефанов,M,SBD,Single-ply,Yes,1958-07-10,Amateur Masters 55-59,82.45,82.5,Стальной Медведь Новосибирск,190,-200,-200,190,-170,170,-185,,170,200,210,-215,210,570,1
Vyacheslav Nikolaev,Вячеслав Николаев,M,SBD,Single-ply,Yes,1956-07-10,Amateur Masters 60-64,99,100,Стальной Медведь Новосибирск,-180,180,190,190,-200,200,-210,,200,220,235,,235,625,1
Gleb Rudakov,Глеб Рудаков,M,B,Raw,Yes,1996-04-18,Amateur Juniors 20-23,96.15,100,Рельеф,,,,,-175,-175,-175,,,,,,,,DQ
Fedor Shikhov,Федор Шихов,M,B,Raw,Yes,2002-07-26,Amateur Teen 14-15,52,52,Рельеф,,,,,102.5,-110,110,,110,,,,,110,1
Maksim Troshin,Максим Трошин,M,B,Raw,Yes,1999-12-29,Amateur Teen 16-17,73.85,75,Рельеф,,,,,160,-172.5,-172.5,,160,,,,,160,1
Artem Biryukov,Артем Бирюков,M,B,Raw,Yes,1998-03-04,Amateur Teen 18-19,80.05,82.5,Рельеф,,,,,-175,-175,175,,175,,,,,175,1
Andrey Kolbin,Андрей Колбин,M,B,Multi-ply,Yes,1984-07-22,Amateur Open,66.95,67.5,Стальной Медведь Новосибирск,,,,,150,-167.5,-167.5,,150,,,,,150,1
Maksim Kovalev,Максим Ковалев,M,B,Multi-ply,Yes,1987-01-28,Amateur Open,66.65,67.5,Стальной Медведь Новосибирск,,,,,145,-167.5,-167.5,,145,,,,,145,2
Vyacheslav Dementev,Вячеслав Дементьев,M,B,Single-ply,Yes,1983-02-17,Amateur Open,73.15,75,Стальной Медведь Новосибирск,,,,,100,-110,-110,,100,,,,,100,1
Evgeniy Krasnukhin,Евгений Краснухин,M,B,Single-ply,Yes,1985-07-07,Amateur Open,73.9,75,Стальной Медведь Новосибирск,,,,,-175,-175,-175,,,,,,,,DQ
Ilya Kazyura,Илья Казюра,M,B,Multi-ply,Yes,1985-08-30,Amateur Open,81.4,82.5,Сафари,,,,,222.5,232.5,250,,250,,,,,250,1
Kirill Rybalchenko,Кирилл Рыбальченко,M,B,Multi-ply,Yes,1990-08-03,Amateur Open,81.5,82.5,Рельеф,,,,,220,-232.5,232.5,,232.5,,,,,232.5,2
Mikhail Kuleshov,Михаил Кулешов,M,B,Multi-ply,Yes,1990-11-25,Amateur Open,82,82.5,Рельеф,,,,,-215,215,-232.5,,215,,,,,215,3
Sergey Khoruzhin,Сергей Хоружин,M,B,Multi-ply,Yes,1990-04-13,Amateur Open,81.75,82.5,Рельеф,,,,,190,200,-217.5,,200,,,,,200,4
Dmitriy Kondaurov,Дмитрий Кондауров,M,B,Multi-ply,Yes,1989-07-19,Amateur Open,81.35,82.5,Рельеф,,,,,-190,190,-200,,190,,,,,190,5
Andrey Tomasik,Андрей Томасик,M,B,Multi-ply,Yes,1987-12-14,Amateur Open,80.1,82.5,Стальной Медведь Новосибирск,,,,,170,-177.5,-177.5,,170,,,,,170,6
Makhabbad Magerramov,Махаббад Магеррамов,M,B,Multi-ply,Yes,1989-04-22,Amateur Open,82.35,82.5,Рельеф,,,,,140,152.5,160,,160,,,,,160,7
Maksim Babun,Максим Бабун,M,B,Multi-ply,Yes,1986-06-05,Amateur Open,78.9,82.5,Рельеф,,,,,-140,-152.5,152.5,,152.5,,,,,152.5,8
Ivan Volozhanin,Иван Воложанин,M,B,Multi-ply,Yes,1991-06-08,Amateur Open,81.4,82.5,Стальной Медведь Новосибирск,,,,,130,-140,140,,140,,,,,140,9
Dmitriy Sherin,Дмитрий Шерин,M,B,Single-ply,Yes,1991-02-17,Amateur Open,89.4,90,Стальной Медведь Новосибирск,,,,,240,257.5,-260,,257.5,,,,,257.5,1
Artem Bykhovets,Артем Быховец,M,B,Single-ply,Yes,1983-07-19,Amateur Open,85.95,90,Стальной Медведь Новосибирск,,,,,240,-260.5,-260.5,,240,,,,,240,2
Maksim Volontyr,Максим Волонтырь,M,B,Single-ply,Yes,1983-12-30,Amateur Open,89.1,90,Стальной Медведь Новосибирск,,,,,-197.5,-197.5,-197.5,,,,,,,,DQ
Nikita Subachev,Никита Субачев,M,B,Multi-ply,No,1994-10-21,Pro Juniors 20-23,74.2,75,г. Рубцовск,,,,,207.5,-217.5,217.5,,217.5,,,,,217.5,1
Oleg Kaygorodov,Олег Кайгородов,M,B,Multi-ply,No,1995-03-05,Pro Juniors 20-23,88.3,90,Рельеф,,,,,-220,220,-230,,220,,,,,220,1
Boris Tikhonov,Борис Тихонов,M,B,Multi-ply,No,,Pro Open,66.85,67.5,Рельеф,,,,,185,-195,195,,195,,,,,195,1
Sergey Bogun,Сергей Богун,M,B,Multi-ply,No,1999-04-03,Pro Open,74.2,75,Рельеф,,,,,-260,-260,262.5,280,262.5,,,,,262.5,1
Evgeniy Verkhotin,Евгений Верхотин,M,B,Multi-ply,No,1995-06-25,Pro Open,74.45,75,Pitbull Gym,,,,,240,260,-270,,260,,,,,260,2
Aleksandr Abramov,Александр Абрамов,M,B,Multi-ply,No,1987-07-30,Pro Open,74.65,75,Рельеф,,,,,250,-260,-265,,250,,,,,250,3
Vladimir Gaplikov,Владимир Гапликов,M,B,Multi-ply,No,1983-09-30,Pro Open,73.8,75,Угловский Район,,,,,220,240,-260,,240,,,,,240,4
Vladimir Pervyshin,Владимир Первышин,M,B,Multi-ply,No,1996-08-05,Pro Open,80.75,82.5,Рельеф,,,,,270,282.5,300,,300,,,,,300,1
Denis Lubyagin,Денис Лубягин,M,B,Multi-ply,No,,Pro Open,82.5,82.5,Рельеф,,,,,190,-207.5,207.5,,207.5,,,,,207.5,2
Aleksey Krotov,Алексей Кротов,M,B,Multi-ply,No,1979-10-12,Pro Open,120.45,125,Рельеф,,,,,-270,270,-300,,270,,,,,270,1
Igor Krugov,Игорь Кругов,M,B,Multi-ply,No,1971-02-15,Pro Masters 45-49,88.3,90,Рельеф,,,,,200,-210,-210,,200,,,,,200,1
Mikhail Turkin,Михаил Туркин,M,B,Multi-ply,No,1969-04-17,Pro Masters 45-49,87.15,90,Аврора,,,,,175,-185,-185,,175,,,,,175,2
Evgeniy Yudin,Евгений Юдин,M,B,Multi-ply,No,1970-07-07,Pro Masters 45-49,97.2,100,Автовокзал,,,,,150,-160,-160,,150,,,,,150,1
Vladimir Kovtonyuk,Владимир Ковтонюк,M,B,Multi-ply,No,1970-09-17,Pro Masters 45-49,107.75,110,Рельеф,,,,,-270,280,-300,,280,,,,,280,1
Vladimir Klementev,Владимир Клементьев,M,B,Multi-ply,No,,Pro Masters 40-44,106.25,110,Рубцовск,,,,,200,230,-240,,230,,,,,230,1
Galina Elchina,Галина Ельчина,F,SBD,Single-ply,Yes,1968-06-08,Amateur Masters 45-49,47.95,48,Стальной Медведь Новосибирск,70,75,-80,75,-70,70,-92.5,,70,95,105,-110,105,250,1
Lyudmila Bachinina,Людмила Бачинина,F,SBD,Single-ply,Yes,1986-09-05,Amateur Open,59.95,60,Стальной Медведь Новосибирск,80,-90,-92.5,80,75,-85,-85,,75,80,90,-100,90,245,1
Yana Zapolskaya,Яна Запольская,F,S,Single-ply,Yes,1995-01-26,Amateur Juniors 20-23,51.4,52,Рельеф,90,95,102.5,102.5,,,,,,,,,,102.5,1
Aleksandra Zimina,Александра Зимина,F,B,Raw,Yes,1998-06-16,Amateur Teen 18-19,59.55,60,Рельеф,,,,,77,-85,-87.5,,77,,,,,77,1
Oksana Levenets,Оксана Левенец,F,B,Raw,Yes,1975-10-16,Amateur Masters 40-44,50.85,52,Стальной Медведь Новосибирск,,,,,50,55,-62.5,,55,,,,,55,1
Kristina Ustinova,Кристина Устинова,F,B,Raw,Yes,1991-05-31,Amateur Open,51.8,52,Рельеф,,,,,57.5,-60,,,57.5,,,,,57.5,1
Anna Vishnyak,Анна Вишняк,F,B,Raw,Yes,1984-12-12,Amateur Open,54.4,56,Стальной Медведь Новосибирск,,,,,95,105,112.5,,112.5,,,,,112.5,1
Anna Novoselova,Анна Новоселова,F,B,Single-ply,Yes,1992-10-06,Amateur Open,59.25,60,Стальной Медведь Новосибирск,,,,,95,105,-115,,105,,,,,105,1
Darya Yalama,Дарья Ялама,F,B,Single-ply,Yes,1987-03-25,Amateur Open,59.3,60,Стальной Медведь Новосибирск,,,,,85,-95,-95,,85,,,,,85,2
Mariya Prikhodko,Мария Приходько,F,B,Single-ply,Yes,1992-09-14,Amateur Open,57.6,60,Стальной Медведь Новосибирск,,,,,75,-85,-95,,75,,,,,75,3
Lyudmila Bachinina,Людмила Бачинина,F,B,Single-ply,Yes,1986-09-05,Amateur Open,59.95,60,Стальной Медведь Новосибирск,,,,,75,-85,-85,,75,,,,,75,4
Tatyana Slepokurova,Татьяна Слепокурова,F,B,Multi-ply,Yes,1969-01-07,Amateur Open,65.6,67.5,Стальной Медведь Новосибирск,,,,,60,-70,70,,70,,,,,70,1
Elena Nikolenko,Елена Николенко,F,B,Multi-ply,Yes,1978-06-15,Amateur Open,74.7,75,Стальной Медведь Новосибирск,,,,,105,115,-120,,115,,,,,115,1
Mariya Prikhodko,Мария Приходько,F,D,Single-ply,Yes,1992-09-14,Amateur Open,57.6,60,Стальной Медведь Новосибирск,,,,,,,,,,90,100,-110,100,100,1
Elena Nikolenko,Елена Николенко,F,D,Single-ply,Yes,1978-06-15,Amateur Open,74.7,75,Стальной Медведь Новосибирск,,,,,,,,,,110,130,140,140,140,1
Andrey Kolbin,Андрей Колбин,M,D,Single-ply,Yes,1984-07-22,Amateur Open,66.95,67.5,Стальной Медведь Новосибирск,,,,,,,,,,210,-232.5,-232.5,210,210,1
Evgeniy Krasnukhin,Евгений Краснухин,M,D,Single-ply,No,1985-07-07,Pro Open,73.9,75,Стальной Медведь Новосибирск,,,,,,,,,,160,190,-215,190,190,1
Mikhail Glaz,Михаил Глаз,M,D,Single-ply,No,1995-06-23,Pro Juniors 20-23,82.25,82.5,АГАУ,,,,,,,,,,230,245,255,255,255,1
Artem Bykhovets,Артем Быховец,M,D,Multi-ply,Yes,1983-07-19,Amateur Open,85.95,90,Стальной Медведь Новосибирск,,,,,,,,,,240,262.5,-285,262.5,262.5,1
Maksim Volontyr,Максим Волонтырь,M,D,Multi-ply,Yes,1983-12-30,Amateur Open,89.1,90,Стальной Медведь Новосибирск,,,,,,,,,,180,192.5,-205,192.5,192.5,2
