Place,Sex,Name,CyrillicName,BodyweightKg,Squat1Kg,Squat2Kg,Squat3Kg,Best3SquatKg,Squat4Kg,Bench1Kg,Bench2Kg,Bench3Kg,Best3BenchKg,Bench4Kg,Deadlift1Kg,Deadlift2Kg,Deadlift3Kg,Best3DeadliftKg,Deadlift4Kg,TotalKg,WeightClassKg,Event,Equipment,Tested,Division,Age,BirthDate
1,F,Ekaterina Surkova,Екатерина Суркова,51,55,60,65,65,,35,42.5,45,45,,90,95,-100,95,,205,52,SBD,Raw,Yes,Open,33,1984-07-05
2,F,Irina Sazonkina,Ирина Сазонкина,51.5,55,-60,60,60,,35,40,-45,40,,67.5,75,82.5,82.5,,182.5,52,SBD,Raw,Yes,Open,27,1990-10-16
1,F,Kristina Sharonova,Кристина Шаронова,55.3,90,-95,-95,90,,40,42.5,45,45,,105,107.5,110,110,,245,56,SBD,Raw,Yes,Open,30,1987-10-20
2,F,Anastasiya Shilenko,Анастасия Шиленко,55.5,55,60,65,65,,30,32.5,-35,32.5,,70,75,80,80,,177.5,56,SBD,Raw,Yes,Open,30,1987-04-02
1,F,Aleksandra Ryzhova,Александра Рыжова,65.3,75,77.5,82.5,82.5,,40,42.5,-45,42.5,,90,95,102.5,102.5,,227.5,67.5,SBD,Raw,Yes,Teen 16-17,17,2000-09-21
DQ,F,Svetlana Myakisheva,Светлана Мякишева,61.5,80,-85,85,85,,-40,-40,-40,,,,,,,,,67.5,SBD,Raw,Yes,Open,33,1984-09-07
1,M,Sergey Luchinskiy,Сергей Лучинский,59.9,150,-170,-170,150,,100,107.5,-112.5,107.5,,160,-180,-180,160,,417.5,60,SBD,Raw,Yes,Open,30,1987-08-08
1,M,Pavel Durnov,Павел Дурнов,66.9,130,140,-142.5,140,,95,100,-102.5,100,,150,155,160,160,,400,67.5,SBD,Raw,Yes,Open,29,1988-07-14
1,M,Aleksandr Tumanov,Александр Туманов,74.8,-120,122.5,130,130,,80,87.5,95,95,,145,155,162.5,162.5,,387.5,75,SBD,Raw,Yes,Open,33,1984-01-05
DQ,M,Evgeniy Tikhonov,Евгений Тихонов,74.2,-150,-150,-150,,,,,,,,-200,200,207.5,207.5,,,75,SBD,Raw,Yes,Open,27,1990-01-17
1,M,Andrey Dubrovskiy,Андрей Дубровский,82.3,120,125,130,130,,110,120,-125,120,,170,180,190,190,,440,82.5,SBD,Raw,Yes,Open,32,1985-04-24
DQ,M,Aleksey Vorotnikov,Алексей Воротников,87.9,-205,-205,-205,,,,,,,,,,,,,,90,SBD,Raw,Yes,Open,37,1980-10-08
1,M,Gleb Silantev,Глеб Силантьев,98.9,190,200,-205,200,,140,150,152.5,152.5,,220,230,235,235,,587.5,100,SBD,Raw,Yes,Juniors 20-23,21,1996-05-03
1,M,Sergey Ryzhov,Сергей Рыжов,98.5,180,-190,200,200,,-140,140,-150,140,,190,205,-215,205,,545,100,SBD,Raw,Yes,Masters 40-44,40,1977-08-28
1,M,Anton Shurov,Антон Шуров,117.7,180,200,215,215,,130,140,-150,140,,210,230,240,240,,595,125,SBD,Raw,Yes,Teen 16-17,17,2000-06-01
1,F,Tatyana Ovchinnikova,Татьяна Овчинникова,51,75,-80,-80,75,,40,47.5,-55,47.5,,80,90,100,100,,222.5,52,SBD,Raw,No,Open,28,1989-07-15
1,M,Roman Malyshev,Роман Малышев,88.3,180,200,215,215,,130,150,170,170,,230,252.5,,252.5,,637.5,90,SBD,Raw,No,Open,39,1978-08-20
1,M,Sergey Surkov,Сергей Сурков,90.2,210,222.5,-227.5,222.5,,170,180,185,185,,255,270,-280,270,,677.5,100,SBD,Raw,No,Open,32,1985-10-14
2,M,Sergey Moiseev,Сергей Моисеев,99.5,200,-215,215,215,,150,157.5,-160,157.5,,250,270,280,280,,652.5,100,SBD,Raw,No,Open,40,1977-08-24
3,M,Aleksey Bragin,Алексей Брагин,99.4,-210,210,,210,,160,-165,,160,,250,260,-275,260,,630,100,SBD,Raw,No,Open,33,1984-02-13
1,M,Sergey Izyumskiy,Сергей Изюмский,93.6,170,180,200,200,,140,150,160,160,,200,220,-247.5,220,,580,100,SBD,Raw,No,Masters 40-44,44,1973-03-27
1,M,David Sichinava,Давид Сичинава,103.8,220,225,230,230,,170,175,-180,175,,260,-275,-275,260,,665,110,SBD,Raw,No,Open,26,1991-09-18
1,M,Sergey Moiseev,Сергей Моисеев,99.5,200,-215,215,215,,,,,,,,,,,,215,100,S,Raw,No,Open,40,1977-08-24
1,M,Sergey Moiseev,Сергей Моисеев,99.5,200,-215,215,215,,,,,,,,,,,,215,100,S,Raw,No,Masters 40-44,40,1977-08-24
1,F,Anastasiya Proskuryakova,Анастасия Проскурякова,58,100,-110,112.5,112.5,,50,55,57.5,57.5,,125,135,142.5,142.5,,312.5,60,SBD,Wraps,Yes,Teen 16-17,17,2000-02-04
1,M,Aleksey Pikalov,Алексей Пикалов,65.6,145,155,162.5,162.5,,85,90,92.5,92.5,,170,185,195,195,,450,67.5,SBD,Wraps,Yes,Open,30,1986-12-19
1,M,Aleksandr Kuznetsov #25,Александр Кузнецов,81,200,-215,215,215,-230,120,125,130,130,-135,200,215,-230,215,,560,82.5,SBD,Wraps,Yes,Juniors 20-23,23,1994-07-19
DQ,M,Roman Pushkin,Роман Пушкин,81.3,-175,-185,-185,,,,,,,,,,,,,,82.5,SBD,Wraps,Yes,Open,26,1991-03-01
1,M,Ilya Salvadov,Илья Сальвадов,89,220,-235,245,245,,140,-155,160,160,,200,225,-245,225,,630,90,SBD,Wraps,Yes,Juniors 20-23,21,1996-02-26
1,F,Alla Pypa,Алла Пыпа,64.3,105,112.5,120,120,,57.5,62.5,-65,62.5,,100,110,-115,110,,292.5,67.5,SBD,Wraps,No,Masters 45-49,49,1968-09-26
1,M,Maksim Dudorov,Максим Дудоров,88.8,-215,225,-235,225,,120,130,-137.5,130,,200,207.5,215,215,,570,90,SBD,Wraps,No,Juniors 20-23,23,1994-04-19
1,M,Aleksey Maksimov,Алексей Максимов,87.7,200,-215,-225,200,,140,152.5,,152.5,,235,-245,,235,,587.5,90,SBD,Wraps,No,Open,27,1989-12-11
1,M,Aleksey Yakushevich,Алексей Якушевич,95.5,285,300,-310,300,,175,182.5,-187.5,182.5,,285,300,307.5,307.5,,790,100,SBD,Wraps,No,Open,26,1991-07-02
2,M,Pavel Petrakov,Павел Петраков,99.9,-235,235,-250,235,,-165,165,-170,165,,255,270,-287.5,270,,670,100,SBD,Wraps,No,Open,27,1990-04-23
1,M,Aleksey Yakushevich,Алексей Якушевич,95.5,285,300,-310,300,,,,,,,,,,,,300,100,S,Wraps,No,Open,26,1991-07-02
1,M,Aleksey Emelyanov,Алексей Емельянов,80.5,245,265,280,280,,175,185,192.5,192.5,,230,240,-250,240,,712.5,82.5,SBD,Single-ply,No,Open,34,1983-02-25
1,F,Irina Lunina,Ирина Лунина,49.8,,,,,,45,47.5,-50,47.5,,80,85,-90,85,,132.5,52,BD,Raw,Yes,Masters 40-44,41,1976-07-17
1,F,Ekaterina Surovtseva,Екатерина Суровцева,59.2,,,,,,55,57.5,-60,57.5,,95,100,-105,100,,157.5,60,BD,Raw,Yes,Open,26,1991-06-07
1,M,Igor Pashkov,Игорь Пашков,81.2,,,,,,130,135,-137.5,135,,230,235,240,240,,375,82.5,BD,Raw,Yes,Open,31,1986-06-10
1,M,Andrey Skalepov,Андрей Скалепов,98.3,,,,,,-125,125,132.5,132.5,,200,210,-220,210,,342.5,100,BD,Raw,Yes,Open,29,1987-12-13
1,F,Lyubov Bakancha,Любовь Баканча,67.4,,,,,,62.5,67.5,-70,67.5,,95,105,117.5,117.5,,185,67.5,BD,Raw,No,Open,40,1977-03-16
1,M,Aleksey Yakushevich,Алексей Якушевич,95.5,,,,,,175,182.5,-187.5,182.5,,285,300,307.5,307.5,,490,100,BD,Raw,No,Open,26,1991-07-02
2,M,Sergey Surkov,Сергей Сурков,90.2,,,,,,170,180,185,185,,255,270,-280,270,,455,100,BD,Raw,No,Open,32,1985-10-14
1,M,Sergey Moiseev,Сергей Моисеев,99.5,,,,,,150,157.5,-160,157.5,,250,270,280,280,,437.5,100,BD,Raw,No,Masters 40-44,40,1977-08-24
1,M,Nadezhda Siryakova,Надежда Сирякова,49.4,,,,,,,,,,,55,57.5,60,60,,60,52,D,Raw,Yes,Open,32,1985-04-09
1,M,Andrey Tonkov,Андрей Тонков,66.4,,,,,,,,,,,170,180,195,195,200,195,67.5,D,Raw,Yes,Teen 13-15,15,2002-10-28
1,M,Evgeniy Tikhonov,Евгений Тихонов,74.2,,,,,,,,,,,-200,207.5,,207.5,,207.5,75,D,Raw,Yes,Open,27,1990-01-17
2,M,Kirill Komarov,Кирилл Комаров,75,,,,,,,,,,,-155,165,175,175,,175,75,D,Raw,Yes,Open,33,1984-01-18
1,M,Aleksandr Zverev,Александр Зверев,76.5,,,,,,,,,,,220,235,250,250,,250,82.5,D,Raw,Yes,Teen 16-17,16,2001-01-30
1,M,Yuriy Ryabinin,Юрий Рябинин,80.7,,,,,,,,,,,190,200,-220,200,,200,82.5,D,Raw,Yes,Open,37,1980-08-03
2,M,Roman Pushkin,Роман Пушкин,81.3,,,,,,,,,,,180,190,200,200,,200,82.5,D,Raw,Yes,Open,26,1991-03-01
1,M,Aleksandr Chupanov,Александр Чупанов,85.4,,,,,,,,,,,160,170,180,180,,180,90,D,Raw,Yes,Juniors 20-23,21,1996-05-08
1,M,Semyon Ubiraev,Семён Убираев,99,,,,,,,,,,,195,210,220,220,,220,100,D,Raw,Yes,Open,29,1988-10-26
1,M,Aleksey Sotov,Алексей Сотов,108.3,,,,,,,,,,,285,-300,-300,285,,285,110,D,Raw,Yes,Open,28,1989-10-04
1,M,Viktor Kapralov,Виктор Капралов,121.3,,,,,,,,,,,225,235,245,245,,245,125,D,Raw,Yes,Open,36,1981-09-30
1,F,Anna Trofimova,Анна Трофимова,42.7,,,,,,,,,,,90,,,90,,90,44,D,Raw,No,Teen 13-15,13,2004-03-09
1,F,Natalya Bredikhina,Наталья Бредихина,55.2,,,,,,,,,,,95,-105,105,105,,105,56,D,Raw,No,Open,36,1981-08-18
2,F,Margarita Evdokimova,Маргарита Евдокимова,52.6,,,,,,,,,,,75,85,,85,,85,56,D,Raw,No,Open,33,1984-01-13
1,F,Margarita Smirnova,Маргарита Смирнова,57.8,,,,,,,,,,,80,90,92.5,92.5,,92.5,60,D,Raw,No,Teen 16-17,16,2001-01-30
1,F,Evgeniya Smirnova,Евгения Смирнова,60,,,,,,,,,,,60,70,,70,,70,60,D,Raw,No,Teen 18-19,19,1998-11-08
1,F,Marina Smirnova,Марина Смирнова,58.7,,,,,,,,,,,90,100,102.5,102.5,,102.5,60,D,Raw,No,Open,32,1985-01-25
2,F,Varvara Terlova,Варвара Терлова,59.6,,,,,,,,,,,90,100,102.5,102.5,,102.5,60,D,Raw,No,Open,26,1991-04-02
1,F,Svetlana Limushkina,Светлана Лимушкина,60.5,,,,,,,,,,,145,150,-152.5,150,,150,67.5,D,Raw,No,Open,38,1979-04-02
2,F,Margarita Sviridova,Маргарита Свиридова,64.7,,,,,,,,,,,100,105,-110,105,,105,67.5,D,Raw,No,Open,30,1987-06-27
1,M,Andrey Tarabeev,Андрей Тарабеев,68.3,,,,,,,,,,,130,140,150,150,,150,75,D,Raw,No,Teen 16-17,17,2000-03-13
2,M,Aleksey Sidorenko,Алексей Сидоренко,68.1,,,,,,,,,,,120,130,-135,130,,130,75,D,Raw,No,Teen 16-17,17,2000-09-08
1,M,Pavel Lyubimov,Павел Любимов,71.5,,,,,,,,,,,140,-150,,140,,140,75,D,Raw,No,Open,25,1992-03-11
1,M,Andrey Demin,Андрей Демин,79.1,,,,,,,,,,,195,200,205,205,,205,82.5,D,Raw,No,Masters 40-44,42,1974-12-26
1,M,Vladislav Bredikhin,Владислав Бредихин,85.1,,,,,,,,,,,120,130,135,135,,135,90,D,Raw,No,Teen 16-17,17,2000-01-16
1,M,Nikolay Molodtsov,Николай Молодцов,88.3,,,,,,,,,,,250,270,-280,270,,270,90,D,Raw,No,Open,38,1979-01-07
2,M,Aleksey Maksimov,Алексей Максимов,87.7,,,,,,,,,,,235,-245,,235,,235,90,D,Raw,No,Open,27,1989-12-11
1,M,Dmitriy Gurkin,Дмитрий Гуркин,99.5,,,,,,,,,,,302.5,312.5,,312.5,,312.5,100,D,Raw,No,Open,35,1981-12-07
2,M,Aleksey Yakushevich,Алексей Якушевич,95.5,,,,,,,,,,,285,300,307.5,307.5,,307.5,100,D,Raw,No,Open,26,1991-07-02
3,M,Sergey Moiseev,Сергей Моисеев,99.5,,,,,,,,,,,250,270,280,280,,280,100,D,Raw,No,Open,40,1977-08-24
1,M,Andrey Smirnov,Андрей Смирнов,99,,,,,,,,,,,252.5,272.5,280,280,,280,100,D,Raw,No,Masters 40-44,40,1977-04-18
1,M,David Sichinava,Давид Сичинава,103.8,,,,,,,,,,,260,-275,-275,260,,260,110,D,Raw,No,Open,26,1991-09-18
1,F,Olga Tyurina,Ольга Тюрина,67.1,,,,,,110,,,110,,,,,,,110,67.5,B,Single-ply,Yes,Open,39,1977-12-09
1,F,Olga Tyurina,Ольга Тюрина,67.1,,,,,,110,,,110,,,,,,,110,67.5,B,Single-ply,Yes,Submasters 35-39,39,1977-12-09
DQ,F,Natalya Arshinova,Наталья Аршинова,58.5,,,,,,-67.5,-67.5,-67.5,,,,,,,,,60,B,Raw,Yes,Masters 40-44,43,1974-05-03
1,M,Artyom Tutin,Артём Тутин,75,,,,,,-120,120,135,135,,,,,,,135,75,B,Raw,Yes,Open,28,1989-08-18
2,M,Nikolay Kiselyuk,Николай Киселюк,73.3,,,,,,120,125,-135,125,,,,,,,125,75,B,Raw,Yes,Open,25,1992-10-16
1,M,Andrey Dunaev,Андрей Дунаев,81.2,,,,,,115,-120,-122.5,115,,,,,,,115,82.5,B,Raw,Yes,Masters 40-44,44,1973-02-12
1,M,Roman Khorev,Роман Хорев,87.7,,,,,,160,170,175,175,,,,,,,175,90,B,Raw,Yes,Open,35,1982-08-04
2,M,Aleksey Shutov,Алексей Шутов,88.1,,,,,,-125,125,132.5,132.5,,,,,,,132.5,90,B,Raw,Yes,Open,30,1987-05-14
1,M,Maksim Tulikov,Максим Туликов,86.4,,,,,,122.5,127.5,132.5,132.5,,,,,,,132.5,90,B,Raw,Yes,Masters 40-44,40,1977-06-26
1,M,Dmitriy Varivoda,Дмитрий Варивода,98.8,,,,,,162.5,167.5,-172.5,167.5,,,,,,,167.5,100,B,Raw,Yes,Juniors 20-23,22,1994-12-18
1,M,Evgeniy Khaydukov,Евгений Хайдуков,97.5,,,,,,175,177.5,180,180,,,,,,,180,100,B,Raw,Yes,Open,34,1983-04-19
2,M,Sergey Gusev,Сергей Гусев,97.7,,,,,,170,175,-180,175,,,,,,,175,100,B,Raw,Yes,Open,29,1988-01-11
3,M,Mikhail Mymrin,Михаил Мымрин,96.5,,,,,,155,162.5,167.5,167.5,,,,,,,167.5,100,B,Raw,Yes,Open,34,1983-04-06
1,M,Sergey Mukhtarov,Сергей Мухтаров,97.6,,,,,,140,145,150,150,,,,,,,150,100,B,Raw,Yes,Masters 55-59,56,1961-02-17
1,M,Ilya Karpov,Илья Карпов,109.4,,,,,,195,205,-210,205,,,,,,,205,110,B,Raw,Yes,Open,24,1993-06-29
2,M,Rustam Bakhteev,Рустам Бахтеев,104.5,,,,,,160,170,-172.5,170,,,,,,,170,110,B,Raw,Yes,Open,23,1994-10-18
1,M,Andrey Sazhin,Андрей Сажин,119.6,,,,,,170,177.5,-180,177.5,,,,,,,177.5,125,B,Raw,Yes,Open,34,1983-01-08
DD,M,Evgeniy Avdulov,Евгений Авдулов,119.4,,,,,,-210,-210,210,210,,,,,,,,125,B,Raw,Yes,Open,34,1983-11-04
1,F,Svetlana Egorova,Светлана Егорова,64.6,,,,,,47.5,50,-52.5,50,,,,,,,50,67.5,B,Raw,No,Masters 45-49,47,1970-09-17
1,M,Vladimir Osipov,Владимир Осипов,66,,,,,,147.5,155,-162.5,155,,,,,,,155,67.5,B,Raw,No,Open,32,1985-10-27
2,M,Rashit Miftakhov,Рашит Мифтахов,67.5,,,,,,120,125,-130,125,,,,,,,125,67.5,B,Raw,No,Open,28,1989-05-16
1,M,Dmitriy Korobov,Дмитрий Коробов,73.4,,,,,,137.5,-145,-145,137.5,,,,,,,137.5,75,B,Raw,No,Open,27,1990-07-22
1,M,Aleksey Shchekunov,Алексей Щекунов,88.2,,,,,,-165,165,175,175,,,,,,,175,90,B,Raw,No,Open,33,1984-07-17
2,M,Aleksey Maksimov,Алексей Максимов,87.7,,,,,,140,152.5,,152.5,,,,,,,152.5,90,B,Raw,No,Open,27,1989-12-11
1,M,Aleksey Yakushevich,Алексей Якушевич,95.5,,,,,,175,182.5,-187.5,182.5,,,,,,,182.5,100,B,Raw,No,Open,26,1991-07-02
2,M,Sergey Moiseev,Сергей Моисеев,99.5,,,,,,150,157.5,,157.5,,,,,,,157.5,100,B,Raw,No,Open,40,1977-08-24
1,M,Dmitriy Myakishev,Дмитрий Мякишев,107.5,,,,,,160,165,167.5,167.5,,,,,,,167.5,110,B,Raw,No,Masters 40-44,43,1974-02-03
1,M,Evgeniy Teplov,Евгений Теплов,65.8,,,,,,85,90,-95,90,,,,,,,90,67.5,B,Raw,No,Open,27,1990-06-16
1,M,Vyacheslav Ermolaev,Вячеслав Ермолаев,93.9,,,,,,175,182.5,187.5,187.5,,,,,,,187.5,100,B,Multi-ply,Yes,Open,37,1980-09-21
DQ,M,Aleksandr Amelin,Александр Амелин,98.6,,,,,,,,,,,,,,,,,100,B,Multi-ply,Yes,Open,30,1987-02-16
