Name,CyrillicName,Division,BirthDate,Age,BodyweightKg,WeightClassKg,Sex,Squat1Kg,Squat2Kg,Squat3Kg,Best3SquatKg,Bench1Kg,Bench2Kg,Bench3Kg,Best3BenchKg,Deadlift1Kg,Deadlift2Kg,Deadlift3Kg,Best3DeadliftKg,TotalKg,Event,Equipment,Tested,Place
Elena Enina,Елена Енина,Amateur Open,1980-01-01,36,48,48,F,,,,,,,,,-110,110,122.5,122.5,122.5,D,Raw,Yes,1
Valeriya Gililova,Валерия Гилилова,Amateur Teen 16-17,1999-05-23,16,50.2,52,F,,,,,,,,,-90,-95,-95,,,D,Raw,Yes,DQ
Aleksandra Gritsaenko,Александра Грицаенко,Amateur Open,1983-08-25,32,54.6,56,F,,,,,,,,,60,70,80,80,80,D,Raw,Yes,1
Anna Zubkova,Анна Зубкова,Amateur Teen 18-19,1996-08-27,19,61.7,67.5,F,,,,,,,,,100,105,115,115,115,D,Raw,Yes,1
Aleksey Dyomin,Алексей Дёмин,Amateur Juniors 20-23,1994-11-12,21,67.5,67.5,M,,,,,,,,,215,230,240,240,240,D,Raw,Yes,1
Dmitriy Poryvaev,Дмитрий Порываев,Amateur Juniors 20-23,1995-10-03,20,66.6,67.5,M,,,,,,,,,155,165,-170,165,165,D,Raw,Yes,2
Aleksandr Sdvizhkov,Александр Сдвижков,Amateur Open,1990-09-02,25,74.1,75,M,,,,,,,,,205,-217.5,-217.5,205,205,D,Raw,Yes,1
Aleksandr Menshakov,Александр Меньшаков,Amateur Open,1988-06-26,27,75,75,M,,,,,,,,,180,202.5,-207.5,202.5,202.5,D,Raw,Yes,2
Yuriy Losev,Юрий Лосев,Amateur Open,1990-07-22,25,73,75,M,,,,,,,,,182.5,192.5,-202.5,192.5,192.5,D,Raw,Yes,3
Vadim Orlov,Вадим Орлов,Amateur Open,1990-07-18,25,82.5,82.5,M,,,,,,,,,200,210,215,215,215,D,Raw,Yes,1
Nikolay Lapik,Николай Лапик,Amateur Open,1980-07-02,35,88.9,90,M,,,,,,,,,200,222.5,235,235,235,D,Raw,Yes,1
Pavel Chibisov,Павел Чибисов,Amateur Open,1980-02-26,35,88.9,90,M,,,,,,,,,-210,210,225,225,225,D,Raw,Yes,2
Andrey Strizhkov,Андрей Стрижков,Amateur Open,1984-01-03,32,96.6,100,M,,,,,,,,,202.5,-217.5,-220,202.5,202.5,D,Raw,Yes,1
Aleksandr Tishchenko,Александр Тищенко,Amateur Open,1982-04-22,33,110.8,125,M,,,,,,,,,250,260,270,270,270,D,Raw,Yes,1
Irina Martynenko,Ирина Мартыненко,Amateur Teen 18-19,1997-06-18,18,55.2,56,F,,,,,-82.5,82.5,-92.5,82.5,,,,,82.5,B,Single-ply,Yes,1
Polina Khromchenko,Полина Хромченко,Amateur Juniors 20-23,1993-10-19,22,54.7,56,F,,,,,70,-80,-80,70,,,,,70,B,Single-ply,Yes,1
Denis Grigorev,Денис Григорьев,Amateur Open,1982-08-07,33,99.4,100,M,,,,,200,-215,-215,200,,,,,200,B,Single-ply,Yes,1
Natalya Enina,Наталья Енина,Amateur Teen 18-19,1996-04-17,19,47,48,F,,,,,45,-50,-50,45,,,,,45,B,Raw,Yes,1
Darya Fedoseeva,Дарья Федосеева,Amateur Teen 13-15,2000-08-09,15,50.9,52,F,,,,,50,52.5,-55,52.5,,,,,52.5,B,Raw,Yes,1
Irina Martynenko,Ирина Мартыненко,Amateur Teen 18-19,1997-06-18,18,55.2,56,F,,,,,72.5,-77.5,-77.5,72.5,,,,,72.5,B,Raw,Yes,1
Polina Khromchenko,Полина Хромченко,Amateur Juniors 20-23,1993-10-19,22,54.7,56,F,,,,,57.5,-62.5,-62.5,57.5,,,,,57.5,B,Raw,Yes,1
Mariya Pustovit,Мария Пустовит,Amateur Open,1985-07-30,30,56,56,F,,,,,60,70,-75,70,,,,,70,B,Raw,Yes,1
Anastasiya Kulishova,Анастасия Кулишова,Amateur Teen 16-17,1999-02-01,16,59.1,60,F,,,,,-52.5,52.5,-57.5,52.5,,,,,52.5,B,Raw,Yes,1
Anna Sklyarova,Анна Склярова,Amateur Teen 16-17,1998-02-07,17,60,60,F,,,,,52.5,-57.5,-57.5,52.5,,,,,52.5,B,Raw,Yes,2
Mariya Krivoruchenko,Мария Криворученко,Amateur Teen 18-19,1997-05-01,18,59.2,60,F,,,,,62.5,67.5,-70,67.5,,,,,67.5,B,Raw,Yes,1
Svetlana Stadnik,Светлана Стадник,Amateur Open,1981-01-14,35,58.9,60,F,,,,,55,-57.5,-57.5,55,,,,,55,B,Raw,Yes,1
Angelina Melnikova,Ангелина Мельникова,Amateur Teen 16-17,1998-10-09,17,63.7,67.5,F,,,,,57.5,62.5,-65,62.5,,,,,62.5,B,Raw,Yes,1
Elena Makarova,Елена Макарова,Amateur Masters 50-54,1962-08-08,53,70.5,75,F,,,,,-45,45,50,50,,,,,50,B,Raw,Yes,1
Ararat Abdoyan,Арарат Абдоян,Amateur Juniors 20-23,1994-06-10,21,53.3,56,M,,,,,-70,70,75,75,,,,,75,B,Raw,Yes,1
Maksim Chursanov,Максим Чурсанов,Amateur Teen 18-19,1997-02-18,18,56.7,60,M,,,,,105,-112.5,112.5,112.5,,,,,112.5,B,Raw,Yes,1
Dmitriy Volkov,Дмитрий Волков,Amateur Open,1982-05-04,33,67.3,67.5,M,,,,,-117.5,-117.5,,,,,,,,B,Raw,Yes,DQ
Kirill Palant,Кирилл Палант,Amateur Teen 16-17,1999-04-02,16,72.6,75,M,,,,,-100,-105,-105,,,,,,,B,Raw,Yes,DQ
Sergey Romanovskiy,Сергей Романовский,Amateur Teen 18-19,1997-03-21,18,74.4,75,M,,,,,-135,135,-140,135,,,,,135,B,Raw,Yes,1
Sergey Avdeyko,Сергей Авдейко,Amateur Open,1985-02-26,30,73.6,75,M,,,,,-135,135,,135,,,,,135,B,Raw,Yes,1
Dmitriy Lyutikov,Дмитрий Лютиков,Amateur Open,1987-11-09,28,73.7,75,M,,,,,125,-130,-130,125,,,,,125,B,Raw,Yes,2
Aleksandr Sdvizhkov,Александр Сдвижков,Amateur Open,1990-09-02,25,74.1,75,M,,,,,115,122.5,-127.5,122.5,,,,,122.5,B,Raw,Yes,3
Aleksey Penkin,Алексей Пенкин,Amateur Juniors 20-23,1992-03-30,23,88.8,90,M,,,,,160,170,-175,170,,,,,170,B,Raw,Yes,1
Andrey Krestinin,Андрей Крестинин,Amateur Open,1987-05-02,28,90,90,M,,,,,175,-182.5,-182.5,175,,,,,175,B,Raw,Yes,1
Nikolay Lapik,Николай Лапик,Amateur Open,1980-07-02,35,88.9,90,M,,,,,135,152.5,160,160,,,,,160,B,Raw,Yes,2
Sergey Pritulyuk,Сергей Притулюк,Amateur Open,1990-07-29,25,90,90,M,,,,,147.5,152.5,155,155,,,,,155,B,Raw,Yes,3
Pavel Chibisov,Павел Чибисов,Amateur Open,1980-02-26,35,88.9,90,M,,,,,140,-152.5,-152.5,140,,,,,140,B,Raw,Yes,4
Aleksey Prokhorov,Алексей Прохоров,Amateur Juniors 20-23,1993-01-26,,99.6,100,M,,,,,157.5,-162.5,-162.5,157.5,,,,,157.5,B,Raw,Yes,1
Aleksandr Kozhevnikov,Александр Кожевников,Amateur Juniors 20-23,1992-09-03,23,98.7,100,M,,,,,145,155,-160,155,,,,,155,B,Raw,Yes,2
Rustam Mukhitdinov,Рустам Мухитдинов,Amateur Juniors 20-23,1994-02-25,21,97.6,100,M,,,,,140,152.5,-157.5,152.5,,,,,152.5,B,Raw,Yes,3
Maksim Parinov,Максим Паринов,Amateur Open,1979-10-27,36,98.9,100,M,,,,,162.5,-170,170,170,,,,,170,B,Raw,Yes,1
Mikhail Komsulev,Михаил Комсулев,Amateur Open,1990-04-04,25,97.8,100,M,,,,,135,-140,-140,135,,,,,135,B,Raw,Yes,2
Abdul Rashid Metrishev,Абдул Рашид Метришев,Amateur Open,1974-01-10,42,99.8,100,M,,,,,-190,-190,-190,,,,,,,B,Raw,Yes,DQ
Vladimir Zaytsev,Владимир Зайцев,Amateur Masters 40-44,1971-04-23,44,92,100,M,,,,,140,150,152.5,152.5,,,,,152.5,B,Raw,Yes,1
Abdul Rashid Metrishev,Абдул Рашид Метришев,Amateur Masters 40-44,1974-01-10,42,99.8,100,M,,,,,-190,-190,-190,,,,,,,B,Raw,Yes,DQ
Aleksandr Istomin,Александр Истомин,Amateur Masters 50-54,1964-11-05,51,98.9,100,M,,,,,115,-120,120,120,,,,,120,B,Raw,Yes,1
Anton Borovlev,Антон Боровлев,Amateur Open,1991-02-11,24,104.3,110,M,,,,,155,165,-170,165,,,,,165,B,Raw,Yes,1
Oleg Akulov,Олег Акулов,Amateur Open,1983-07-19,32,103.2,110,M,,,,,150,-155,-160,150,,,,,150,B,Raw,Yes,2
Vasiliy Zdorov,Василий Здоров,Amateur Open,1980-06-17,35,109.4,110,M,,,,,135,140,-147.5,140,,,,,140,B,Raw,Yes,3
Roman Karpushin,Роман Карпушин,Amateur Masters 40-44,1973-11-18,42,100.4,110,M,,,,,-160,170,180,180,,,,,180,B,Raw,Yes,1
Mikhail Kalinin,Михаил Калинин,Amateur Masters 40-44,1975-07-22,40,106.7,110,M,,,,,150,162.5,-165,162.5,,,,,162.5,B,Raw,Yes,2
Konstantin Chernyshov,Константин Чернышов,Amateur Juniors 20-23,1992-11-11,23,118.5,125,M,,,,,130,-137.5,-137.5,130,,,,,130,B,Raw,Yes,1
Roman Bashirov,Роман Баширов,Amateur Open,1988-08-07,27,124.9,125,M,,,,,-180,182.5,192.5,192.5,,,,,192.5,B,Raw,Yes,1
Roman Gorbunov,Роман Горбунов,Amateur Open,1979-08-20,36,127.8,140,M,,,,,100,-110,-110,100,,,,,100,B,Raw,Yes,1
Oleg Kosinov,Олег Косинов,Amateur Open,1982-01-04,34,82.5,82.5,M,155,-160,165,165,135,140,145,145,160,170,-180,170,480,SBD,Multi-ply,Yes,1
Artem Altunin,Артем Алтунин,Amateur Open,1977-12-05,38,92.8,100,M,170,180,190,190,150,160,-165,160,170,180,-185,180,530,SBD,Multi-ply,Yes,1
Anna Zubkova,Анна Зубкова,Amateur Teen 18-19,1996-08-27,19,61.7,67.5,F,-80,80,-90,80,-40,40,47.5,47.5,90,100,105,105,232.5,SBD,Wraps,Yes,1
Elena Sergeeva,Елена Сергеева,Amateur Juniors 20-23,1994-07-02,21,66.3,67.5,F,105,-120,-120,105,50,-60,-60,50,-125,125,135,135,290,SBD,Wraps,Yes,1
Nikolay Petrakov,Николай Петраков,Amateur Teen 16-17,1999-09-17,16,63.9,67.5,M,150,160,-170,160,-85,90,-95,90,170,180,-190,180,430,SBD,Wraps,Yes,1
Aleksey Okolelov,Алексей Околелов,Amateur Teen 13-15,2001-08-24,14,68,75,M,102.5,-105,,102.5,67.5,70,72.5,72.5,125,130,135,135,310,SBD,Wraps,Yes,1
Artem Chebotarev,Артем Чеботарев,Amateur Open,1990-02-10,25,81.1,82.5,M,160,170,-175,170,150,-155,,150,200,215,-220,215,535,SBD,Wraps,Yes,1
Aleksandr Skurtu,Александр Скурту,Amateur Masters 40-44,1973-11-17,42,81.4,82.5,M,160,-170,170,170,-127.5,-127.5,127.5,127.5,180,195,-212.5,195,492.5,SBD,Wraps,Yes,1
Klim Zakharov,Клим Захаров,Amateur Masters 40-44,1974-05-01,41,89.7,90,M,-130,130,145,145,110,115,120,120,160,170,180,180,445,SBD,Wraps,Yes,1
Roman Kalashnikov,Роман Калашников,Amateur Juniors 20-23,1994-02-20,21,99.2,100,M,190,200,210,210,130,-135,-135,130,230,240,-250,240,580,SBD,Wraps,Yes,1
Andrey Strizhkov,Андрей Стрижков,Amateur Open,1984-01-03,32,96.6,100,M,-170,-170,-170,,-130,,,,,,,,,SBD,Wraps,Yes,DQ
Dmitriy Gritsaenko,Дмитрий Грицаенко,Pro Open,1979-07-17,36,95.1,100,M,,,,,,,,,230,-245,-245,230,230,D,Multi-ply,No,1
Danil Tararuev,Данил Тараруев,Pro Teen 13-15,2000-10-26,15,48,52,M,,,,,,,,,110,125,-135,125,125,D,Raw,No,1
Erik Kareyan,Эрик Кареян,Pro Teen 16-17,1999-10-04,16,74.1,75,M,,,,,,,,,-130,130,-150,130,130,D,Raw,No,1
Aleksandr Metsker,Александр Мецкер,Pro Juniors 20-23,1993-12-26,22,81.7,82.5,M,,,,,,,,,200,210,-225,210,210,D,Raw,No,1
Vladimir Nemov,Владимир Немов,Pro Open,1984-12-17,31,88.9,90,M,,,,,,,,,240,250,260,260,260,D,Raw,No,1
Sergey Leshkov,Сергей Лешков,Pro Open,1971-12-14,44,95.9,100,M,,,,,,,,,225,240,-250,240,240,D,Raw,No,1
Aleksandr Rystsov,Александр Рысцов,Pro Open,1979-12-02,36,110.3,125,M,,,,,217.5,225,235,235,,,,,235,B,Single-ply,No,1
Oleg Mordvintsev,Олег Мордвинцев,Pro Masters 40-44,1973-03-21,42,114.8,125,M,,,,,185,195,-215,195,,,,,195,B,Single-ply,No,1
Olga Lazurenko,Ольга Лазуренко,Pro Open,1971-09-05,44,57.8,60,F,,,,,97.5,-100,-100,97.5,,,,,97.5,B,Raw,No,1
Artem Latyshev,Артем Латышев,Pro Open,1981-01-05,35,73.7,75,M,,,,,100,105,-110,105,,,,,105,B,Raw,No,1
Denis Prokofev,Денис Прокофьев,Pro Open,1985-04-16,30,88.6,90,M,,,,,190,195,-200,195,,,,,195,B,Raw,No,1
Sergey Lazurenko,Сергей Лазуренко,Pro Open,1989-03-12,26,86.5,90,M,,,,,180,-185,-185,180,,,,,180,B,Raw,No,2
Vladislav Volkov,Владислав Волков,Pro Juniors 20-23,1992-09-09,23,109.5,110,M,,,,,170,175,-185,175,,,,,175,B,Raw,No,1
Ruslan Kachanov,Руслан Качанов,Pro Open,1970-10-19,45,107.8,110,M,,,,,200,210,220,220,,,,,220,B,Raw,No,1
Ruslan Kachanov,Руслан Качанов,Pro Masters 45-49,1970-10-19,45,107.8,110,M,,,,,200,210,220,220,,,,,220,B,Raw,No,1
Sergey Lisitsyn,Сергей Лисицын,Pro Masters 45-49,1970-10-26,45,110,110,M,,,,,195,205,215,215,,,,,215,B,Raw,No,2
Mikhail Sidorychev,Михаил Сидорычев,Pro Open,1979-06-08,36,141.7,140+,M,,,,,235,-240,-245,235,,,,,235,B,Raw,No,1
Artem Latyshev,Артем Латышев,Pro Open,1981-01-05,35,73.7,75,M,-110,-120,130,130,-100,-100,-105,,,,,,,SBD,Raw,No,DQ
Shamil Chamsaev,Шамиль Чамсаев,Pro Open,1979-12-29,36,99.1,100,M,-250,260,-275,260,170,177.5,-180,177.5,240,255,-260,255,692.5,SBD,Raw,No,1
Aleksey Kutukov,Алексей Кутуков,Pro Open,1982-08-01,33,91.5,100,M,-200,200,210,210,160,-165,,160,220,230,245,245,615,SBD,Raw,No,2
Grigoriy Provotorov,Григорий Провоторов,Pro Open,1980-07-26,35,90.2,100,M,200,,,200,150,-155,,150,220,240,252.5,252.5,602.5,SBD,Raw,No,3
