Place,Name,CyrillicName,BodyweightKg,Bench1Kg,Bench2Kg,Bench3Kg,TotalKg,WeightClassKg,Division,Sex,Event,Equipment,Best3BenchKg,BirthYear
1,Vitaliy Seredenko,Віталій Середенко,90.9,-135,135,-140,135,100,Pro Teen 16-17,M,B,Multi-ply,135,1995
1,Oleksand Kovtun,Олександ Ковтун,72.7,130,-140,140,140,75,Pro Juniors 20-23,M,B,Multi-ply,140,1991
1,Mikola Sergeev,Микола Сергєєв,99.8,280,-292.5,-292.5,280,100,Pro Juniors 20-23,M,B,Multi-ply,280,1991
1,Mikhaylo Kozelchuk,Михайло Козельчук,102.8,-205,205,210,210,110,Pro Juniors 20-23,M,B,Multi-ply,210,1988
1,Oleksandr Kovtun,Олександр Ковтун,72.7,130,-140,140,140,75,Pro Open,M,B,Multi-ply,140,1991
1,Volodimir Galiga,Володимир Галига,89.8,225,-230,-230,225,90,Pro Open,M,B,Multi-ply,225,1983
2,Maksim Trokhimchuk,Максим Трохимчук,86.5,-130,-130,130,130,90,Pro Open,M,B,Multi-ply,130,1981
1,Oleg Zhulinskiy,Олег Жулинский,93,210,230,,230,100,Pro Open,M,B,Multi-ply,230,1980
1,Volodimir Kolyada,Володимир Коляда,102.5,180,190,-200,190,110,Pro Open,M,B,Multi-ply,190,1983
1,Volodimir Samusev,Володимир Самусев,111.6,190,200,205,205,125,Pro Open,M,B,Multi-ply,205,1976
1,Karina Utenkova,Карина Утенкова,42.9,35,-37.5,-37.5,35,44,Pro Juniors 20-23,F,B,Raw,35,1988
1,Nadiya Savchenko,Надія Савченко,50.2,60,-62.5,-62.5,60,52,Pro Open,F,B,Raw,60,1986
1,Olga Mala,Ольга Мала,58.9,40,-42.5,42.5,42.5,60,Pro Open,F,B,Raw,42.5,1976
1,Lina Zubritska,Ліна Зубрицька,61.2,90,95,100,100,67.5,Pro Open,F,B,Raw,100,1988
1,Lyudmila Tsvetkova,Людмила Цветкова,55.8,47.5,52.5,-55,52.5,56,Pro Masters 50-54,F,B,Raw,52.5,1961
1,Irina Kabakova,Ирина Кабакова,67.5,42.5,47.5,-52.5,47.5,67.5,Pro Masters 50-54,F,B,Raw,47.5,1959
1,Olga Mala,Ольга Мала,58.9,40,-42.5,42.5,42.5,60,Pro Military/Fire/Police,F,B,Raw,42.5,1976
1,Mikita Kravets,Микита Кравець,41.8,42.5,47.5,50,50,44,Pro Children 11-12,M,B,Raw,50,2000
1,Andriy Prilepa,Андрій Прилепа,59.7,60,65,67.5,67.5,60,Pro Teen 13-15,M,B,Raw,67.5,1997
1,Volodimir Kolisnik,Володимир Колісник,65.3,90,100,-110,100,67.5,Pro Teen 13-15,M,B,Raw,100,1997
1,Vladislav Kovalenko,Владислав Коваленко,74.1,110,115,120,120,75,Pro Teen 16-17,M,B,Raw,120,1995
1,Vitaliy Seredenko,Віталій Середенко,91,100,110,-120,110,100,Pro Teen 16-17,M,B,Raw,110,1995
1,Igor Tarasov,Ігор Тарасов,82.5,-110,120,125,125,82.5,Pro Teen 18-19,M,B,Raw,125,1993
1,Viktor Matsenko,Віктор Маценко,73.7,-120,125,-135,125,75,Pro Juniors 20-23,M,B,Raw,125,1988
2,Ivan Shevchenko,Иван Шевченко,71.4,90,100,-105,100,75,Pro Juniors 20-23,M,B,Raw,100,1990
1,Dawid Kijewski,,82,-130,140,-150,140,82.5,Pro Juniors 20-23,M,B,Raw,140,1988
2,Oleksandr Klimenko,Олександр Кліменко,76.1,125,132.5,-140,132.5,82.5,Pro Juniors 20-23,M,B,Raw,132.5,1990
1,Igor Mazur,Ігор Мазур,89.9,125,132.5,135,135,90,Pro Juniors 20-23,M,B,Raw,135,1989
2,Maksim Avramenko,Максим Авраменко,90,120,130,135,135,90,Pro Juniors 20-23,M,B,Raw,135,1992
3,Mikhaylo Prilepa,Михайло Прилепа,90,110,-117.5,117.5,117.5,90,Pro Juniors 20-23,M,B,Raw,117.5,1989
1,Oleksandr Tarasov,Олександр Тарасов,95,145,152.5,157.5,157.5,100,Pro Juniors 20-23,M,B,Raw,157.5,1991
2,Vitaliy Reyda,Віталій Рейда,99.8,110,-120,125,125,100,Pro Juniors 20-23,M,B,Raw,125,1990
3,Danilo Udovik,Данило Удовик,91.3,95,102.5,-105,102.5,100,Pro Juniors 20-23,M,B,Raw,102.5,1992
1,Mikhaylo Kozelchuk,Михайло Козельчук,102.8,162.5,172.5,182.5,182.5,110,Pro Juniors 20-23,M,B,Raw,182.5,1988
1,Artur Lamekin,Артур Ламєкін,125,155,162.5,-170,162.5,125,Pro Juniors 20-23,M,B,Raw,162.5,1990
1,Vladislav Gorbenko,Владислав Горбенко,65.7,102.5,107.5,110,110,67.5,Pro Open,M,B,Raw,110,1972
2,Sergiy Toporen,Сергій Топорен,67.3,102.5,107.5,-110,107.5,67.5,Pro Open,M,B,Raw,107.5,1987
1,Sergiy Lesnikovskiy,Сергій Лесніковський,72.9,135,140,142.5,142.5,75,Pro Open,M,B,Raw,142.5,1988
2,Stanislav Sheyko,Станислав Шейко,74.1,120,130,140,140,75,Pro Open,M,B,Raw,140,1986
3,Dmitro Cherkay,Дмитро Черкай,70,130,135,-137.5,135,75,Pro Open,M,B,Raw,135,1985
4,Mikola Semikin,Микола Семікін,73.9,110,115,-120,115,75,Pro Open,M,B,Raw,115,1986
1,Oleksandr Lebed,Олександр Лебедь,81.7,150,165,-167.5,165,82.5,Pro Open,M,B,Raw,165,1983
2,Maksim Boyarskiy #1,Максим Боярський,82.5,120,127.5,135,135,82.5,Pro Open,M,B,Raw,135,1984
3,Oleksand Klimenko,Олександ Клименко,76.1,125,132.5,-140,132.5,82.5,Pro Open,M,B,Raw,132.5,1990
1,Oleksandr Shcherbakov,Олександр Щербаков,90,200,210,-222.5,210,90,Pro Open,M,B,Raw,210,1966
2,Konstyantin Grabovskiy,Констянтин Грабовський,88.8,185,190,-200,190,90,Pro Open,M,B,Raw,190,1976
3,Ruslan Ivanenko,Руслан Іваненко,87.5,145,-150,-155,145,90,Pro Open,M,B,Raw,145,1976
1,Oleksiy Bondarenko,Олексій Бондаренко,100,150,162.5,167.5,167.5,100,Pro Open,M,B,Raw,167.5,1981
2,Oleksandr Kalinichenko,Олександр Калініченко,98.6,-150,-155,162.5,162.5,100,Pro Open,M,B,Raw,162.5,1983
1,Sergiy Bessel,Сергій Бессель,104.8,150,157.5,165,165,110,Pro Open,M,B,Raw,165,1984
1,Evgen Pavlov,Євгеній Павлов,112.8,-185,-185,185,185,125,Pro Open,M,B,Raw,185,1976
2,Artur Lamekin,Артур Ламєкін,125,155,162.5,-170,162.5,125,Pro Open,M,B,Raw,162.5,1990
1,Temur Yuldashev,Темур Юлдашев,99.5,175,180,185,185,100,Pro Masters 40-44,M,B,Raw,185,1969
1,Dmitro Kabakov,Дмитро Кабаков,83.9,120,125,-127.5,125,90,Pro Masters 45-49,M,B,Raw,125,1963
1,Oleksiy Khromenkov,Олексій Хроменков,93,110,120,125,125,100,Pro Masters 50-54,M,B,Raw,125,1957
1,Sergiy Miroshnichenko #1,Сергій Мірошніченко,104.7,115,125,135,135,110,Pro Masters 55-59,M,B,Raw,135,1952
1,Anton Kravchina,Антон Кравчина,82.3,85,90,95,95,82.5,Pro Military/Fire/Police,M,B,Raw,95,1986
1,Konstyantin Grabovskiy,Констянтин Грабовський,88.8,185,190,-200,190,90,Pro Military/Fire/Police,M,B,Raw,190,1976
1,Sergiy Bilous,Сергій Білоус,104.8,110,120,-130,120,110,Pro Military/Fire/Police,M,B,Raw,120,1977
