Division,WeightClassKg,Place,Name,Team,BodyweightKg,Best3SquatKg,Best3BenchKg,Best3DeadliftKg,TotalKg,Equipment,Event,Sex
Boys,51.71,1,Austin Hardy,Somerset,50.08,81.65,63.5,122.47,267.62,Single-ply,SBD,M
Boys,51.71,2,Brandon Fernandez,Poteet,44.18,104.33,54.43,106.59,265.35,Single-ply,SBD,M
Boys,51.71,3,Oscar Escamilla,San Antonio Southside,51.07,79.38,49.9,106.59,235.87,Single-ply,SBD,M
Boys,51.71,4,Gage Cross,Hondo,47.22,56.7,38.56,92.99,188.24,Single-ply,SBD,M
Boys,55.79,1,Michael Mitchell,San Antonio Southside,54.2,172.37,102.06,192.78,467.2,Single-ply,SBD,M
Boys,55.79,2,Kyle Bailey,Karnes City,53.52,147.42,88.45,145.15,381.02,Single-ply,SBD,M
Boys,55.79,3,Rudy Rios,Devine,55.57,129.27,79.38,161.03,369.68,Single-ply,SBD,M
Boys,55.79,4,Edward Devora,Castroville Medina Valley,54.79,113.4,74.84,142.88,331.12,Single-ply,SBD,M
Boys,55.79,DQ,Devyn Hernandez,Somerset,55.11,,,,,Single-ply,SBD,M
Boys,59.87,1,Jose Trevino,San Antonio Southside,58.56,226.8,111.13,195.04,532.97,Single-ply,SBD,M
Boys,59.87,2,Luke Torres,Devine,58.97,147.42,92.99,172.37,412.77,Single-ply,SBD,M
Boys,59.87,3,Jesse Gonzalez,San Antonio Holy Cross,55.84,129.27,70.31,174.63,374.21,Single-ply,SBD,M
Boys,59.87,4,Roman Ornelas,San Antonio Holy Cross,58.29,111.13,68.04,165.56,344.73,Single-ply,SBD,M
Boys,59.87,5,Colton Bean,Devine,56.47,133.81,72.57,127.01,333.39,Single-ply,SBD,M
Boys,59.87,6,Nathan Martinez,San Antonio Holy Cross,55.88,120.2,61.23,142.88,324.32,Single-ply,SBD,M
Boys,59.87,7,Demetrios Monreal,Devine,55.97,113.4,63.5,136.08,312.98,Single-ply,SBD,M
Boys,67.13,1,Domingo Zapata,Somerset,65.82,208.65,131.54,208.65,548.85,Single-ply,SBD,M
Boys,67.13,2,AJ Salas,San Antonio Southside,66.59,217.72,136.08,188.24,542.04,Single-ply,SBD,M
Boys,67.13,3,Raul Guerra,Poteet,63.73,170.1,111.13,188.24,469.47,Single-ply,SBD,M
Boys,67.13,4,Arturo Yturte,Somerset,66.5,195.04,79.38,190.51,464.93,Single-ply,SBD,M
Boys,67.13,5,Daireon Smith,San Antonio East Central,63.96,158.76,102.06,154.22,415.04,Single-ply,SBD,M
Boys,67.13,6,Jose Fargason,Devine,67.13,142.88,81.65,183.7,408.23,Single-ply,SBD,M
Boys,67.13,7,Steven Ramirez,Devine,66.41,147.42,99.79,149.69,396.89,Single-ply,SBD,M
Boys,67.13,8,Aaron Sanchez,Poteet,65,136.08,86.18,156.49,378.75,Single-ply,SBD,M
Boys,74.84,1,Matthew Collier,San Antonio Southside,72.57,233.6,124.74,231.33,589.67,Single-ply,SBD,M
Boys,74.84,2,Mark Saldana,San Antonio East Central,74.8,217.72,140.61,229.06,587.4,Single-ply,SBD,M
Boys,74.84,3,Brandon Rios #2,Somerset,73.98,204.12,127.01,233.6,564.72,Single-ply,SBD,M
Boys,74.84,4,Jacob Aguilar,San Antonio Holy Cross,73.71,215.46,142.88,190.51,548.85,Single-ply,SBD,M
Boys,74.84,5,Anthony Estrada,Somerset,74.62,222.26,115.67,210.92,548.85,Single-ply,SBD,M
Boys,74.84,6,Ivan Fernandez,Castroville Medina Valley,71.8,192.78,124.74,206.38,523.9,Single-ply,SBD,M
Boys,74.84,7,Jacob Meis,Castroville Medina Valley,71.03,172.37,111.13,199.58,483.08,Single-ply,SBD,M
Boys,74.84,8,Dylan Delgago,Somerset,74.43,170.1,108.86,190.51,469.47,Single-ply,SBD,M
Boys,74.84,9,Matthew Garcia,San Antonio Holy Cross,70.31,181.44,88.45,197.31,467.2,Single-ply,SBD,M
Boys,74.84,10,Christian Rodriguez,San Antonio Southside,74.34,172.37,124.74,170.1,467.2,Single-ply,SBD,M
Boys,74.84,11,Luke Janosky,Castroville Medina Valley,69.44,170.1,106.59,174.63,451.32,Single-ply,SBD,M
Boys,74.84,12,Michael Rios,San Antonio East Central,70.81,158.76,102.06,188.24,449.06,Single-ply,SBD,M
Boys,74.84,13,Hayden Burwell,Devine,73.16,174.63,108.86,165.56,449.06,Single-ply,SBD,M
Boys,74.84,14,Lucas Byrd,Devine,73.89,161.03,99.79,183.7,444.52,Single-ply,SBD,M
Boys,74.84,15,Robert Schmidt #4,Karnes City,74.12,167.83,102.06,174.63,444.52,Single-ply,SBD,M
Boys,74.84,16,Brent Gisler,Karnes City,72.67,161.03,108.86,172.37,442.25,Single-ply,SBD,M
Boys,74.84,17,Ramiro Flores,Brackettville Brackett,73.07,151.95,102.06,183.7,437.72,Single-ply,SBD,M
Boys,74.84,18,Kaden Crouch,Stockdale,73.44,154.22,102.06,161.03,417.3,Single-ply,SBD,M
Boys,74.84,19,Gilibaldo Garcia,San Antonio Brooks Academy,72.76,131.54,88.45,192.78,412.77,Single-ply,SBD,M
Boys,74.84,20,Noah Brogdon,Devine,74.62,149.69,106.59,149.69,405.97,Single-ply,SBD,M
Boys,74.84,21,Able Flores,Somerset,70.13,142.88,86.18,174.63,403.7,Single-ply,SBD,M
Boys,74.84,22,Michael Rodriguez #6,Stockdale,68.17,149.69,90.72,161.03,401.43,Single-ply,SBD,M
Boys,74.84,23,Angel Jaso,Brackettville Brackett,72.03,147.42,83.91,147.42,378.75,Single-ply,SBD,M
Boys,74.84,24,Isaiah Enriquez,Karnes City,71.99,136.08,65.77,161.03,362.87,Single-ply,SBD,M
Boys,74.84,25,Joseph Martinez,Somerset,73.39,127.01,58.97,165.56,351.53,Single-ply,SBD,M
Boys,74.84,26,Tanner Lindhorst,Brackettville Brackett,72.48,124.74,74.84,147.42,347,Single-ply,SBD,M
Boys,74.84,27,Timothy Carrasco,Poteet,71.99,92.99,61.23,149.69,303.91,Single-ply,SBD,M
Boys,74.84,DQ,Chase Dubose,Devine,68.72,,,,,Single-ply,SBD,M
Boys,82.1,1,Isaiah Garza,Somerset,80.74,210.92,120.2,235.87,566.99,Single-ply,SBD,M
Boys,82.1,2,Mitchell Rees,Karnes City,81.6,222.26,104.33,208.65,535.24,Single-ply,SBD,M
Boys,82.1,3,Adrian Sustaita,Castroville Medina Valley,78.65,188.24,113.4,210.92,512.56,Single-ply,SBD,M
Boys,82.1,4,Joseph Moreno,San Antonio East Central,78.88,204.12,113.4,183.7,501.22,Single-ply,SBD,M
Boys,82.1,5,Richard Villarreal,San Antonio East Central,78.88,199.58,106.59,183.7,489.88,Single-ply,SBD,M
Boys,82.1,6,Marcus Ortega,Northside Brennan,77.56,188.24,92.99,204.12,485.34,Single-ply,SBD,M
Boys,82.1,7,Steven Mireles,Castroville Medina Valley,78.65,170.1,102.06,188.24,460.4,Single-ply,SBD,M
Boys,82.1,8,Manny Arguijo,Del Rio,77.02,158.76,102.06,183.7,444.52,Single-ply,SBD,M
Boys,82.1,9,Luis Frausto,Del Rio,79.7,149.69,104.33,179.17,433.18,Single-ply,SBD,M
Boys,82.1,10,Kyler McBlane,Stockdale,80.33,176.9,95.25,156.49,428.64,Single-ply,SBD,M
Boys,82.1,11,Reagan Brown,Devine,80.69,142.88,97.52,115.67,356.07,Single-ply,SBD,M
Boys,82.1,DQ,Roberto Garcia,San Antonio Southside,81.37,,,,,Single-ply,SBD,M
Boys,82.1,DQ,Michael Gomez #1,Poteet,78.58,,,,,Single-ply,SBD,M
Boys,89.81,1,Adam Garcia,San Antonio Southside,88.45,240.4,158.76,231.33,630.49,Single-ply,SBD,M
Boys,89.81,2,Nathon Cantu,San Antonio Brooks Academy,87.54,238.14,151.95,213.19,603.28,Single-ply,SBD,M
Boys,89.81,3,Andres Moncada,Karnes City,82.74,197.31,122.47,217.72,537.51,Single-ply,SBD,M
Boys,89.81,4,Brandon Atnipp,Del Rio,84.05,176.9,136.08,208.65,521.63,Single-ply,SBD,M
Boys,89.81,5,Austin Felan,Devine,89.4,195.04,124.74,172.37,492.15,Single-ply,SBD,M
Boys,89.81,6,Bo Perez,San Antonio Holy Cross,86.73,204.12,102.06,183.7,489.88,Single-ply,SBD,M
Boys,89.81,7,Abel Villarreal,Somerset,88.27,185.97,92.99,179.17,458.13,Single-ply,SBD,M
Boys,89.81,8,Houston Crawford,Castroville Medina Valley,88.13,183.7,102.06,163.29,449.06,Single-ply,SBD,M
Boys,89.81,9,Dylan Vogt,San Antonio Holy Cross,85.73,167.83,86.18,183.7,437.72,Single-ply,SBD,M
Boys,89.81,10,Abel Hernandez,Del Rio,89.68,140.61,104.33,165.56,410.5,Single-ply,SBD,M
Boys,89.81,11,Joshua Tinajero,Somerset,86.05,147.42,88.45,167.83,403.7,Single-ply,SBD,M
Boys,89.81,12,Jose Rodriguez,Del Rio,89.81,142.88,83.91,170.1,396.89,Single-ply,SBD,M
Boys,89.81,13,Lucas Aranda,Somerset,85.77,147.42,74.84,167.83,390.09,Single-ply,SBD,M
Boys,89.81,14,Adriel Tovar,Poteet,88.81,142.88,81.65,149.69,374.21,Single-ply,SBD,M
Boys,89.81,15,Nathaniel Gomez,Karnes City,87.95,138.35,72.57,136.08,347,Single-ply,SBD,M
Boys,89.81,16,Tanner Hardcastle,Devine,84.19,83.91,65.77,102.06,251.74,Single-ply,SBD,M
Boys,99.79,1,Tyler Crisp,Poteet,98.16,254.01,127.01,222.26,603.28,Single-ply,SBD,M
Boys,99.79,2,Joe Paul Rodriguez,Poteet,90.08,210.92,120.2,256.28,587.4,Single-ply,SBD,M
Boys,99.79,3,Patrick Zaiontz,San Antonio Brooks Academy,99.11,192.78,161.03,229.06,582.87,Single-ply,SBD,M
Boys,99.79,4,Eli Rejino,Devine,98.38,219.99,151.95,204.12,576.06,Single-ply,SBD,M
Boys,99.79,5,Tony Rivas,Brackettville Brackett,99.34,238.14,111.13,219.99,569.26,Single-ply,SBD,M
Boys,99.79,6,Raymond Casarez,San Antonio Holy Cross,95.35,206.38,120.2,226.8,553.38,Single-ply,SBD,M
Boys,99.79,7,Jose Garcia #8,Somerset,95.25,215.46,117.93,188.24,521.63,Single-ply,SBD,M
Boys,99.79,8,Moises Garcia,San Antonio Southside,91.04,195.04,124.74,183.7,503.49,Single-ply,SBD,M
Boys,99.79,9,Kase Clark,Karnes City,98.16,190.51,104.33,190.51,485.34,Single-ply,SBD,M
Boys,99.79,10,Rafael Salinas,Somerset,92.85,188.24,97.52,188.24,474,Single-ply,SBD,M
Boys,99.79,11,Reno Garza,Somerset,98.47,183.7,117.93,154.22,455.86,Single-ply,SBD,M
Boys,99.79,12,Jose Luis Llanas,Brackettville Brackett,97.25,174.63,86.18,183.7,444.52,Single-ply,SBD,M
Boys,99.79,13,Gabino Barrera,Del Rio,92.31,147.42,113.4,163.29,424.11,Single-ply,SBD,M
Boys,99.79,14,Jose Mendoza #1,Del Rio,98.79,154.22,102.06,156.49,412.77,Single-ply,SBD,M
Boys,99.79,15,Dylan Lutz,Hondo,98.07,170.1,79.38,149.69,399.16,Single-ply,SBD,M
Boys,99.79,16,Fabian Talamantes,Brackettville Brackett,97.43,142.88,65.77,188.24,396.89,Single-ply,SBD,M
Boys,99.79,17,Dizon Rodriguez,Del Rio,95.03,140.61,90.72,156.49,387.82,Single-ply,SBD,M
Boys,99.79,18,Ryan Bowman,Karnes City,97.98,142.88,92.99,147.42,383.29,Single-ply,SBD,M
Boys,109.77,1,Eddie Moreno,Somerset,109.5,240.4,156.49,240.4,637.3,Single-ply,SBD,M
Boys,109.77,2,Austen Flores,San Antonio Holy Cross,109.59,208.65,115.67,254.01,578.33,Single-ply,SBD,M
Boys,109.77,3,Jalen Cano,Stockdale,107.73,192.78,108.86,170.1,471.74,Single-ply,SBD,M
Boys,109.77,4,Adan Rodriguez,Brackettville Brackett,101.79,183.7,88.45,183.7,455.86,Single-ply,SBD,M
Boys,109.77,5,Jacob Hernandez,Stockdale,99.88,151.95,92.99,158.76,403.7,Single-ply,SBD,M
Boys,109.77,6,Jaydon Jasso,Del Rio,100.83,111.13,83.91,204.12,399.16,Single-ply,SBD,M
Boys,109.77,7,Zach Guzman,Karnes City,108.32,161.03,92.99,145.15,399.16,Single-ply,SBD,M
Boys,109.77,DQ,Bernard Aguilar,Poteet,103.87,,,,,Single-ply,SBD,M
Boys,124.74,1,James Woods,Somerset,120.97,328.85,165.56,265.35,759.77,Single-ply,SBD,M
Boys,124.74,2,Austin Soto,Devine,119.66,260.82,199.58,235.87,696.26,Single-ply,SBD,M
Boys,124.74,3,Rolando DeLuna,Castroville Medina Valley,122.02,240.4,133.81,206.38,580.6,Single-ply,SBD,M
Boys,124.74,4,Bryce Long,San Antonio East Central,119.2,217.72,154.22,190.51,562.45,Single-ply,SBD,M
Boys,124.74,5,Jordan Shedrock,San Antonio East Central,114.08,204.12,122.47,158.76,485.34,Single-ply,SBD,M
Boys,124.74,6,Jerimiah Gonzales,Castroville Medina Valley,117.25,197.31,124.74,161.03,483.08,Single-ply,SBD,M
Boys,124.74,7,Javier Gallegos,Del Rio,124.06,181.44,104.33,158.76,444.52,Single-ply,SBD,M
Boys,124.74,8,Jose Martinez,Del Rio,121.2,158.76,97.52,158.76,415.04,Single-ply,SBD,M
Boys,124.74,9,Louis Rico,Somerset,123.01,147.42,117.93,124.74,390.09,Single-ply,SBD,M
Boys,124.74,10,Abe Hinojosa,Del Rio,118.21,133.81,79.38,147.42,360.61,Single-ply,SBD,M
Boys,124.74,11,AJ Ortiz,San Antonio Holy Cross,111.77,133.81,61.23,142.88,337.93,Single-ply,SBD,M
Boys,124.74+,1,Joseph Peña #1,San Antonio Holy Cross,150.96,396.89,204.12,274.42,875.43,Single-ply,SBD,M
Boys,124.74+,2,Michael Diaz,Stockdale,134.67,249.48,161.03,226.8,637.3,Single-ply,SBD,M
Boys,124.74+,3,Martin Hidrogo,Stockdale,134.4,249.48,158.76,226.8,635.03,Single-ply,SBD,M
Boys,124.74+,4,Chris Cobb,Somerset,150.59,251.74,149.69,210.92,612.35,Single-ply,SBD,M
Boys,124.74+,5,Javier De Leon,Somerset,145.97,210.92,136.08,170.1,517.1,Single-ply,SBD,M
Boys,124.74+,6,Mikey Chapa,Karnes City,139.93,192.78,102.06,192.78,487.61,Single-ply,SBD,M
Boys,124.74+,7,Phillip Gonzalez,San Antonio Holy Cross,144.51,167.83,108.86,188.24,464.93,Single-ply,SBD,M
Boys,124.74+,8,Joseph Rodriguez,Del Rio,146.28,165.56,102.06,183.7,451.32,Single-ply,SBD,M
Boys,124.74+,9,Sebastian Ramirez,Somerset,135.67,174.63,70.31,183.7,428.64,Single-ply,SBD,M
Boys,124.74+,DQ,Michael Kessler,Castroville Medina Valley,144.92,,,,,Single-ply,SBD,M
